^C:\USERS\RYO\DESKTOP\EVOCREATURE - コピー\EVOCREATURE\BASENODE.CPP
/c /I"C:\USERS\RYO\DOCUMENTS\INCLUDE\ODE-0.13\INCLUDE" /IC:\USERS\RYO\DOCUMENTS\INCLUDE\GLFW\INCLUDE /IC:\USERS\RYO\DOCUMENTS\INCLUDE\EIGEN /IC:\USERS\RYO\DOCUMENTS\INCLUDE\FREEGLUT\INCLUDE /I"C:\USERS\RYO\DOCUMENTS\INCLUDE\CEREAL-MASTER\INCLUDE" /ZI /nologo /W3 /WX- /diagnostics:classic /sdl /Od /D _DEBUG /D _CONSOLE /D _UNICODE /D UNICODE /Gm- /EHsc /RTC1 /MDd /GS /fp:precise /Zc:wchar_t /Zc:forScope /Zc:inline /Fo"X64\DEBUG\\" /Fd"X64\DEBUG\VC141.PDB" /Gd /TP /FC C:\USERS\RYO\DESKTOP\EVOCREATURE - コピー\EVOCREATURE\BASENODE.CPP
^C:\USERS\RYO\DESKTOP\EVOCREATURE - コピー\EVOCREATURE\BOX.CPP
/c /I"C:\USERS\RYO\DOCUMENTS\INCLUDE\ODE-0.13\INCLUDE" /IC:\USERS\RYO\DOCUMENTS\INCLUDE\GLFW\INCLUDE /IC:\USERS\RYO\DOCUMENTS\INCLUDE\EIGEN /IC:\USERS\RYO\DOCUMENTS\INCLUDE\FREEGLUT\INCLUDE /I"C:\USERS\RYO\DOCUMENTS\INCLUDE\CEREAL-MASTER\INCLUDE" /ZI /nologo /W3 /WX- /diagnostics:classic /sdl /Od /D _DEBUG /D _CONSOLE /D _UNICODE /D UNICODE /Gm- /EHsc /RTC1 /MDd /GS /fp:precise /Zc:wchar_t /Zc:forScope /Zc:inline /Fo"X64\DEBUG\\" /Fd"X64\DEBUG\VC141.PDB" /Gd /TP /FC C:\USERS\RYO\DESKTOP\EVOCREATURE - コピー\EVOCREATURE\BOX.CPP
^C:\USERS\RYO\DESKTOP\EVOCREATURE - コピー\EVOCREATURE\EFFECTORNEURON.CPP
/c /I"C:\USERS\RYO\DOCUMENTS\INCLUDE\ODE-0.13\INCLUDE" /IC:\USERS\RYO\DOCUMENTS\INCLUDE\GLFW\INCLUDE /IC:\USERS\RYO\DOCUMENTS\INCLUDE\EIGEN /IC:\USERS\RYO\DOCUMENTS\INCLUDE\FREEGLUT\INCLUDE /I"C:\USERS\RYO\DOCUMENTS\INCLUDE\CEREAL-MASTER\INCLUDE" /ZI /nologo /W3 /WX- /diagnostics:classic /sdl /Od /D _DEBUG /D _CONSOLE /D _UNICODE /D UNICODE /Gm- /EHsc /RTC1 /MDd /GS /fp:precise /Zc:wchar_t /Zc:forScope /Zc:inline /Fo"X64\DEBUG\\" /Fd"X64\DEBUG\VC141.PDB" /Gd /TP /FC C:\USERS\RYO\DESKTOP\EVOCREATURE - コピー\EVOCREATURE\EFFECTORNEURON.CPP
^C:\USERS\RYO\DESKTOP\EVOCREATURE - コピー\EVOCREATURE\DRAWINGWINDOW.CPP
/c /I"C:\USERS\RYO\DOCUMENTS\INCLUDE\ODE-0.13\INCLUDE" /IC:\USERS\RYO\DOCUMENTS\INCLUDE\GLFW\INCLUDE /IC:\USERS\RYO\DOCUMENTS\INCLUDE\EIGEN /IC:\USERS\RYO\DOCUMENTS\INCLUDE\FREEGLUT\INCLUDE /I"C:\USERS\RYO\DOCUMENTS\INCLUDE\CEREAL-MASTER\INCLUDE" /ZI /nologo /W3 /WX- /diagnostics:classic /sdl /Od /D _DEBUG /D _CONSOLE /D _UNICODE /D UNICODE /Gm- /EHsc /RTC1 /MDd /GS /fp:precise /Zc:wchar_t /Zc:forScope /Zc:inline /Fo"X64\DEBUG\\" /Fd"X64\DEBUG\VC141.PDB" /Gd /TP /FC C:\USERS\RYO\DESKTOP\EVOCREATURE - コピー\EVOCREATURE\DRAWINGWINDOW.CPP
^C:\USERS\RYO\DESKTOP\EVOCREATURE - コピー\EVOCREATURE\GENOTYPE.CPP
/c /I"C:\USERS\RYO\DOCUMENTS\INCLUDE\ODE-0.13\INCLUDE" /IC:\USERS\RYO\DOCUMENTS\INCLUDE\GLFW\INCLUDE /IC:\USERS\RYO\DOCUMENTS\INCLUDE\EIGEN /IC:\USERS\RYO\DOCUMENTS\INCLUDE\FREEGLUT\INCLUDE /I"C:\USERS\RYO\DOCUMENTS\INCLUDE\CEREAL-MASTER\INCLUDE" /ZI /nologo /W3 /WX- /diagnostics:classic /sdl /Od /D _DEBUG /D _CONSOLE /D _UNICODE /D UNICODE /Gm- /EHsc /RTC1 /MDd /GS /fp:precise /Zc:wchar_t /Zc:forScope /Zc:inline /Fo"X64\DEBUG\\" /Fd"X64\DEBUG\VC141.PDB" /Gd /TP /FC C:\USERS\RYO\DESKTOP\EVOCREATURE - コピー\EVOCREATURE\GENOTYPE.CPP
^C:\USERS\RYO\DESKTOP\EVOCREATURE - コピー\EVOCREATURE\GENOTYPEARRAY.CPP
/c /I"C:\USERS\RYO\DOCUMENTS\INCLUDE\ODE-0.13\INCLUDE" /IC:\USERS\RYO\DOCUMENTS\INCLUDE\GLFW\INCLUDE /IC:\USERS\RYO\DOCUMENTS\INCLUDE\EIGEN /IC:\USERS\RYO\DOCUMENTS\INCLUDE\FREEGLUT\INCLUDE /I"C:\USERS\RYO\DOCUMENTS\INCLUDE\CEREAL-MASTER\INCLUDE" /ZI /nologo /W3 /WX- /diagnostics:classic /sdl /Od /D _DEBUG /D _CONSOLE /D _UNICODE /D UNICODE /Gm- /EHsc /RTC1 /MDd /GS /fp:precise /Zc:wchar_t /Zc:forScope /Zc:inline /Fo"X64\DEBUG\\" /Fd"X64\DEBUG\VC141.PDB" /Gd /TP /FC C:\USERS\RYO\DESKTOP\EVOCREATURE - コピー\EVOCREATURE\GENOTYPEARRAY.CPP
^C:\USERS\RYO\DESKTOP\EVOCREATURE - コピー\EVOCREATURE\HEADNODE.CPP
/c /I"C:\USERS\RYO\DOCUMENTS\INCLUDE\ODE-0.13\INCLUDE" /IC:\USERS\RYO\DOCUMENTS\INCLUDE\GLFW\INCLUDE /IC:\USERS\RYO\DOCUMENTS\INCLUDE\EIGEN /IC:\USERS\RYO\DOCUMENTS\INCLUDE\FREEGLUT\INCLUDE /I"C:\USERS\RYO\DOCUMENTS\INCLUDE\CEREAL-MASTER\INCLUDE" /ZI /nologo /W3 /WX- /diagnostics:classic /sdl /Od /D _DEBUG /D _CONSOLE /D _UNICODE /D UNICODE /Gm- /EHsc /RTC1 /MDd /GS /fp:precise /Zc:wchar_t /Zc:forScope /Zc:inline /Fo"X64\DEBUG\\" /Fd"X64\DEBUG\VC141.PDB" /Gd /TP /FC C:\USERS\RYO\DESKTOP\EVOCREATURE - コピー\EVOCREATURE\HEADNODE.CPP
^C:\USERS\RYO\DESKTOP\EVOCREATURE - コピー\EVOCREATURE\HINGEJOINT.CPP
/c /I"C:\USERS\RYO\DOCUMENTS\INCLUDE\ODE-0.13\INCLUDE" /IC:\USERS\RYO\DOCUMENTS\INCLUDE\GLFW\INCLUDE /IC:\USERS\RYO\DOCUMENTS\INCLUDE\EIGEN /IC:\USERS\RYO\DOCUMENTS\INCLUDE\FREEGLUT\INCLUDE /I"C:\USERS\RYO\DOCUMENTS\INCLUDE\CEREAL-MASTER\INCLUDE" /ZI /nologo /W3 /WX- /diagnostics:classic /sdl /Od /D _DEBUG /D _CONSOLE /D _UNICODE /D UNICODE /Gm- /EHsc /RTC1 /MDd /GS /fp:precise /Zc:wchar_t /Zc:forScope /Zc:inline /Fo"X64\DEBUG\\" /Fd"X64\DEBUG\VC141.PDB" /Gd /TP /FC C:\USERS\RYO\DESKTOP\EVOCREATURE - コピー\EVOCREATURE\HINGEJOINT.CPP
^C:\USERS\RYO\DESKTOP\EVOCREATURE - コピー\EVOCREATURE\NEUROCONNECTION.CPP
/c /I"C:\USERS\RYO\DOCUMENTS\INCLUDE\ODE-0.13\INCLUDE" /IC:\USERS\RYO\DOCUMENTS\INCLUDE\GLFW\INCLUDE /IC:\USERS\RYO\DOCUMENTS\INCLUDE\EIGEN /IC:\USERS\RYO\DOCUMENTS\INCLUDE\FREEGLUT\INCLUDE /I"C:\USERS\RYO\DOCUMENTS\INCLUDE\CEREAL-MASTER\INCLUDE" /ZI /nologo /W3 /WX- /diagnostics:classic /sdl /Od /D _DEBUG /D _CONSOLE /D _UNICODE /D UNICODE /Gm- /EHsc /RTC1 /MDd /GS /fp:precise /Zc:wchar_t /Zc:forScope /Zc:inline /Fo"X64\DEBUG\\" /Fd"X64\DEBUG\VC141.PDB" /Gd /TP /FC C:\USERS\RYO\DESKTOP\EVOCREATURE - コピー\EVOCREATURE\NEUROCONNECTION.CPP
^C:\USERS\RYO\DESKTOP\EVOCREATURE - コピー\EVOCREATURE\NORMALNEURON.CPP
/c /I"C:\USERS\RYO\DOCUMENTS\INCLUDE\ODE-0.13\INCLUDE" /IC:\USERS\RYO\DOCUMENTS\INCLUDE\GLFW\INCLUDE /IC:\USERS\RYO\DOCUMENTS\INCLUDE\EIGEN /IC:\USERS\RYO\DOCUMENTS\INCLUDE\FREEGLUT\INCLUDE /I"C:\USERS\RYO\DOCUMENTS\INCLUDE\CEREAL-MASTER\INCLUDE" /ZI /nologo /W3 /WX- /diagnostics:classic /sdl /Od /D _DEBUG /D _CONSOLE /D _UNICODE /D UNICODE /Gm- /EHsc /RTC1 /MDd /GS /fp:precise /Zc:wchar_t /Zc:forScope /Zc:inline /Fo"X64\DEBUG\\" /Fd"X64\DEBUG\VC141.PDB" /Gd /TP /FC C:\USERS\RYO\DESKTOP\EVOCREATURE - コピー\EVOCREATURE\NORMALNEURON.CPP
^C:\USERS\RYO\DESKTOP\EVOCREATURE - コピー\EVOCREATURE\NORMALNODE.CPP
/c /I"C:\USERS\RYO\DOCUMENTS\INCLUDE\ODE-0.13\INCLUDE" /IC:\USERS\RYO\DOCUMENTS\INCLUDE\GLFW\INCLUDE /IC:\USERS\RYO\DOCUMENTS\INCLUDE\EIGEN /IC:\USERS\RYO\DOCUMENTS\INCLUDE\FREEGLUT\INCLUDE /I"C:\USERS\RYO\DOCUMENTS\INCLUDE\CEREAL-MASTER\INCLUDE" /ZI /nologo /W3 /WX- /diagnostics:classic /sdl /Od /D _DEBUG /D _CONSOLE /D _UNICODE /D UNICODE /Gm- /EHsc /RTC1 /MDd /GS /fp:precise /Zc:wchar_t /Zc:forScope /Zc:inline /Fo"X64\DEBUG\\" /Fd"X64\DEBUG\VC141.PDB" /Gd /TP /FC C:\USERS\RYO\DESKTOP\EVOCREATURE - コピー\EVOCREATURE\NORMALNODE.CPP
^C:\USERS\RYO\DESKTOP\EVOCREATURE - コピー\EVOCREATURE\RANDOMOPERATION.CPP
/c /I"C:\USERS\RYO\DOCUMENTS\INCLUDE\ODE-0.13\INCLUDE" /IC:\USERS\RYO\DOCUMENTS\INCLUDE\GLFW\INCLUDE /IC:\USERS\RYO\DOCUMENTS\INCLUDE\EIGEN /IC:\USERS\RYO\DOCUMENTS\INCLUDE\FREEGLUT\INCLUDE /I"C:\USERS\RYO\DOCUMENTS\INCLUDE\CEREAL-MASTER\INCLUDE" /ZI /nologo /W3 /WX- /diagnostics:classic /sdl /Od /D _DEBUG /D _CONSOLE /D _UNICODE /D UNICODE /Gm- /EHsc /RTC1 /MDd /GS /fp:precise /Zc:wchar_t /Zc:forScope /Zc:inline /Fo"X64\DEBUG\\" /Fd"X64\DEBUG\VC141.PDB" /Gd /TP /FC C:\USERS\RYO\DESKTOP\EVOCREATURE - コピー\EVOCREATURE\RANDOMOPERATION.CPP
^C:\USERS\RYO\DESKTOP\EVOCREATURE - コピー\EVOCREATURE\RAY.CPP
/c /I"C:\USERS\RYO\DOCUMENTS\INCLUDE\ODE-0.13\INCLUDE" /IC:\USERS\RYO\DOCUMENTS\INCLUDE\GLFW\INCLUDE /IC:\USERS\RYO\DOCUMENTS\INCLUDE\EIGEN /IC:\USERS\RYO\DOCUMENTS\INCLUDE\FREEGLUT\INCLUDE /I"C:\USERS\RYO\DOCUMENTS\INCLUDE\CEREAL-MASTER\INCLUDE" /ZI /nologo /W3 /WX- /diagnostics:classic /sdl /Od /D _DEBUG /D _CONSOLE /D _UNICODE /D UNICODE /Gm- /EHsc /RTC1 /MDd /GS /fp:precise /Zc:wchar_t /Zc:forScope /Zc:inline /Fo"X64\DEBUG\\" /Fd"X64\DEBUG\VC141.PDB" /Gd /TP /FC C:\USERS\RYO\DESKTOP\EVOCREATURE - コピー\EVOCREATURE\RAY.CPP
^C:\USERS\RYO\DESKTOP\EVOCREATURE - コピー\EVOCREATURE\SENSOR.CPP
/c /I"C:\USERS\RYO\DOCUMENTS\INCLUDE\ODE-0.13\INCLUDE" /IC:\USERS\RYO\DOCUMENTS\INCLUDE\GLFW\INCLUDE /IC:\USERS\RYO\DOCUMENTS\INCLUDE\EIGEN /IC:\USERS\RYO\DOCUMENTS\INCLUDE\FREEGLUT\INCLUDE /I"C:\USERS\RYO\DOCUMENTS\INCLUDE\CEREAL-MASTER\INCLUDE" /ZI /nologo /W3 /WX- /diagnostics:classic /sdl /Od /D _DEBUG /D _CONSOLE /D _UNICODE /D UNICODE /Gm- /EHsc /RTC1 /MDd /GS /fp:precise /Zc:wchar_t /Zc:forScope /Zc:inline /Fo"X64\DEBUG\\" /Fd"X64\DEBUG\VC141.PDB" /Gd /TP /FC C:\USERS\RYO\DESKTOP\EVOCREATURE - コピー\EVOCREATURE\SENSOR.CPP
^C:\USERS\RYO\DESKTOP\EVOCREATURE - コピー\EVOCREATURE\SENSORNEURON.CPP
/c /I"C:\USERS\RYO\DOCUMENTS\INCLUDE\ODE-0.13\INCLUDE" /IC:\USERS\RYO\DOCUMENTS\INCLUDE\GLFW\INCLUDE /IC:\USERS\RYO\DOCUMENTS\INCLUDE\EIGEN /IC:\USERS\RYO\DOCUMENTS\INCLUDE\FREEGLUT\INCLUDE /I"C:\USERS\RYO\DOCUMENTS\INCLUDE\CEREAL-MASTER\INCLUDE" /ZI /nologo /W3 /WX- /diagnostics:classic /sdl /Od /D _DEBUG /D _CONSOLE /D _UNICODE /D UNICODE /Gm- /EHsc /RTC1 /MDd /GS /fp:precise /Zc:wchar_t /Zc:forScope /Zc:inline /Fo"X64\DEBUG\\" /Fd"X64\DEBUG\VC141.PDB" /Gd /TP /FC C:\USERS\RYO\DESKTOP\EVOCREATURE - コピー\EVOCREATURE\SENSORNEURON.CPP
^C:\USERS\RYO\DESKTOP\EVOCREATURE - コピー\EVOCREATURE\FUNCTION.CPP
/c /I"C:\USERS\RYO\DOCUMENTS\INCLUDE\ODE-0.13\INCLUDE" /IC:\USERS\RYO\DOCUMENTS\INCLUDE\GLFW\INCLUDE /IC:\USERS\RYO\DOCUMENTS\INCLUDE\EIGEN /IC:\USERS\RYO\DOCUMENTS\INCLUDE\FREEGLUT\INCLUDE /I"C:\USERS\RYO\DOCUMENTS\INCLUDE\CEREAL-MASTER\INCLUDE" /ZI /nologo /W3 /WX- /diagnostics:classic /sdl /Od /D _DEBUG /D _CONSOLE /D _UNICODE /D UNICODE /Gm- /EHsc /RTC1 /MDd /GS /fp:precise /Zc:wchar_t /Zc:forScope /Zc:inline /Fo"X64\DEBUG\\" /Fd"X64\DEBUG\VC141.PDB" /Gd /TP /FC C:\USERS\RYO\DESKTOP\EVOCREATURE - コピー\EVOCREATURE\FUNCTION.CPP
^C:\USERS\RYO\DESKTOP\EVOCREATURE - コピー\EVOCREATURE\PARAMETER.CPP
/c /I"C:\USERS\RYO\DOCUMENTS\INCLUDE\ODE-0.13\INCLUDE" /IC:\USERS\RYO\DOCUMENTS\INCLUDE\GLFW\INCLUDE /IC:\USERS\RYO\DOCUMENTS\INCLUDE\EIGEN /IC:\USERS\RYO\DOCUMENTS\INCLUDE\FREEGLUT\INCLUDE /I"C:\USERS\RYO\DOCUMENTS\INCLUDE\CEREAL-MASTER\INCLUDE" /ZI /nologo /W3 /WX- /diagnostics:classic /sdl /Od /D _DEBUG /D _CONSOLE /D _UNICODE /D UNICODE /Gm- /EHsc /RTC1 /MDd /GS /fp:precise /Zc:wchar_t /Zc:forScope /Zc:inline /Fo"X64\DEBUG\\" /Fd"X64\DEBUG\VC141.PDB" /Gd /TP /FC C:\USERS\RYO\DESKTOP\EVOCREATURE - コピー\EVOCREATURE\PARAMETER.CPP
^C:\USERS\RYO\DESKTOP\EVOCREATURE - コピー\EVOCREATURE\SINGLETON.CPP
/c /I"C:\USERS\RYO\DOCUMENTS\INCLUDE\ODE-0.13\INCLUDE" /IC:\USERS\RYO\DOCUMENTS\INCLUDE\GLFW\INCLUDE /IC:\USERS\RYO\DOCUMENTS\INCLUDE\EIGEN /IC:\USERS\RYO\DOCUMENTS\INCLUDE\FREEGLUT\INCLUDE /I"C:\USERS\RYO\DOCUMENTS\INCLUDE\CEREAL-MASTER\INCLUDE" /ZI /nologo /W3 /WX- /diagnostics:classic /sdl /Od /D _DEBUG /D _CONSOLE /D _UNICODE /D UNICODE /Gm- /EHsc /RTC1 /MDd /GS /fp:precise /Zc:wchar_t /Zc:forScope /Zc:inline /Fo"X64\DEBUG\\" /Fd"X64\DEBUG\VC141.PDB" /Gd /TP /FC C:\USERS\RYO\DESKTOP\EVOCREATURE - コピー\EVOCREATURE\SINGLETON.CPP
^C:\USERS\RYO\DESKTOP\EVOCREATURE - コピー\EVOCREATURE\BASENEURON.CPP
/c /I"C:\USERS\RYO\DOCUMENTS\INCLUDE\ODE-0.13\INCLUDE" /IC:\USERS\RYO\DOCUMENTS\INCLUDE\GLFW\INCLUDE /IC:\USERS\RYO\DOCUMENTS\INCLUDE\EIGEN /IC:\USERS\RYO\DOCUMENTS\INCLUDE\FREEGLUT\INCLUDE /I"C:\USERS\RYO\DOCUMENTS\INCLUDE\CEREAL-MASTER\INCLUDE" /ZI /nologo /W3 /WX- /diagnostics:classic /sdl /Od /D _DEBUG /D _CONSOLE /D _UNICODE /D UNICODE /Gm- /EHsc /RTC1 /MDd /GS /fp:precise /Zc:wchar_t /Zc:forScope /Zc:inline /Fo"X64\DEBUG\\" /Fd"X64\DEBUG\VC141.PDB" /Gd /TP /FC C:\USERS\RYO\DESKTOP\EVOCREATURE - コピー\EVOCREATURE\BASENEURON.CPP
^C:\USERS\RYO\DESKTOP\EVOCREATURE - コピー\EVOCREATURE\CAMERA.CPP
/c /I"C:\USERS\RYO\DOCUMENTS\INCLUDE\ODE-0.13\INCLUDE" /IC:\USERS\RYO\DOCUMENTS\INCLUDE\GLFW\INCLUDE /IC:\USERS\RYO\DOCUMENTS\INCLUDE\EIGEN /IC:\USERS\RYO\DOCUMENTS\INCLUDE\FREEGLUT\INCLUDE /I"C:\USERS\RYO\DOCUMENTS\INCLUDE\CEREAL-MASTER\INCLUDE" /ZI /nologo /W3 /WX- /diagnostics:classic /sdl /Od /D _DEBUG /D _CONSOLE /D _UNICODE /D UNICODE /Gm- /EHsc /RTC1 /MDd /GS /fp:precise /Zc:wchar_t /Zc:forScope /Zc:inline /Fo"X64\DEBUG\\" /Fd"X64\DEBUG\VC141.PDB" /Gd /TP /FC C:\USERS\RYO\DESKTOP\EVOCREATURE - コピー\EVOCREATURE\CAMERA.CPP
^C:\USERS\RYO\DESKTOP\EVOCREATURE - コピー\EVOCREATURE\CONNECTION.CPP
/c /I"C:\USERS\RYO\DOCUMENTS\INCLUDE\ODE-0.13\INCLUDE" /IC:\USERS\RYO\DOCUMENTS\INCLUDE\GLFW\INCLUDE /IC:\USERS\RYO\DOCUMENTS\INCLUDE\EIGEN /IC:\USERS\RYO\DOCUMENTS\INCLUDE\FREEGLUT\INCLUDE /I"C:\USERS\RYO\DOCUMENTS\INCLUDE\CEREAL-MASTER\INCLUDE" /ZI /nologo /W3 /WX- /diagnostics:classic /sdl /Od /D _DEBUG /D _CONSOLE /D _UNICODE /D UNICODE /Gm- /EHsc /RTC1 /MDd /GS /fp:precise /Zc:wchar_t /Zc:forScope /Zc:inline /Fo"X64\DEBUG\\" /Fd"X64\DEBUG\VC141.PDB" /Gd /TP /FC C:\USERS\RYO\DESKTOP\EVOCREATURE - コピー\EVOCREATURE\CONNECTION.CPP
^C:\USERS\RYO\DESKTOP\EVOCREATURE - コピー\EVOCREATURE\DYNAMICSWORLD.CPP
/c /I"C:\USERS\RYO\DOCUMENTS\INCLUDE\ODE-0.13\INCLUDE" /IC:\USERS\RYO\DOCUMENTS\INCLUDE\GLFW\INCLUDE /IC:\USERS\RYO\DOCUMENTS\INCLUDE\EIGEN /IC:\USERS\RYO\DOCUMENTS\INCLUDE\FREEGLUT\INCLUDE /I"C:\USERS\RYO\DOCUMENTS\INCLUDE\CEREAL-MASTER\INCLUDE" /ZI /nologo /W3 /WX- /diagnostics:classic /sdl /Od /D _DEBUG /D _CONSOLE /D _UNICODE /D UNICODE /Gm- /EHsc /RTC1 /MDd /GS /fp:precise /Zc:wchar_t /Zc:forScope /Zc:inline /Fo"X64\DEBUG\\" /Fd"X64\DEBUG\VC141.PDB" /Gd /TP /FC C:\USERS\RYO\DESKTOP\EVOCREATURE - コピー\EVOCREATURE\DYNAMICSWORLD.CPP
^C:\USERS\RYO\DESKTOP\EVOCREATURE - コピー\EVOCREATURE\GENEPOOL.CPP
/c /I"C:\USERS\RYO\DOCUMENTS\INCLUDE\ODE-0.13\INCLUDE" /IC:\USERS\RYO\DOCUMENTS\INCLUDE\GLFW\INCLUDE /IC:\USERS\RYO\DOCUMENTS\INCLUDE\EIGEN /IC:\USERS\RYO\DOCUMENTS\INCLUDE\FREEGLUT\INCLUDE /I"C:\USERS\RYO\DOCUMENTS\INCLUDE\CEREAL-MASTER\INCLUDE" /ZI /nologo /W3 /WX- /diagnostics:classic /sdl /Od /D _DEBUG /D _CONSOLE /D _UNICODE /D UNICODE /Gm- /EHsc /RTC1 /MDd /GS /fp:precise /Zc:wchar_t /Zc:forScope /Zc:inline /Fo"X64\DEBUG\\" /Fd"X64\DEBUG\VC141.PDB" /Gd /TP /FC C:\USERS\RYO\DESKTOP\EVOCREATURE - コピー\EVOCREATURE\GENEPOOL.CPP
^C:\USERS\RYO\DESKTOP\EVOCREATURE - コピー\EVOCREATURE\MAIN.CPP
/c /I"C:\USERS\RYO\DOCUMENTS\INCLUDE\ODE-0.13\INCLUDE" /IC:\USERS\RYO\DOCUMENTS\INCLUDE\GLFW\INCLUDE /IC:\USERS\RYO\DOCUMENTS\INCLUDE\EIGEN /IC:\USERS\RYO\DOCUMENTS\INCLUDE\FREEGLUT\INCLUDE /I"C:\USERS\RYO\DOCUMENTS\INCLUDE\CEREAL-MASTER\INCLUDE" /ZI /nologo /W3 /WX- /diagnostics:classic /sdl /Od /D _DEBUG /D _CONSOLE /D _UNICODE /D UNICODE /Gm- /EHsc /RTC1 /MDd /GS /fp:precise /Zc:wchar_t /Zc:forScope /Zc:inline /Fo"X64\DEBUG\\" /Fd"X64\DEBUG\VC141.PDB" /Gd /TP /FC C:\USERS\RYO\DESKTOP\EVOCREATURE - コピー\EVOCREATURE\MAIN.CPP
^C:\USERS\RYO\DESKTOP\EVOCREATURE - コピー\EVOCREATURE\NEURALNETWORK.CPP
/c /I"C:\USERS\RYO\DOCUMENTS\INCLUDE\ODE-0.13\INCLUDE" /IC:\USERS\RYO\DOCUMENTS\INCLUDE\GLFW\INCLUDE /IC:\USERS\RYO\DOCUMENTS\INCLUDE\EIGEN /IC:\USERS\RYO\DOCUMENTS\INCLUDE\FREEGLUT\INCLUDE /I"C:\USERS\RYO\DOCUMENTS\INCLUDE\CEREAL-MASTER\INCLUDE" /ZI /nologo /W3 /WX- /diagnostics:classic /sdl /Od /D _DEBUG /D _CONSOLE /D _UNICODE /D UNICODE /Gm- /EHsc /RTC1 /MDd /GS /fp:precise /Zc:wchar_t /Zc:forScope /Zc:inline /Fo"X64\DEBUG\\" /Fd"X64\DEBUG\VC141.PDB" /Gd /TP /FC C:\USERS\RYO\DESKTOP\EVOCREATURE - コピー\EVOCREATURE\NEURALNETWORK.CPP
^C:\USERS\RYO\DESKTOP\EVOCREATURE - コピー\EVOCREATURE\PHENOTYPE.CPP
/c /I"C:\USERS\RYO\DOCUMENTS\INCLUDE\ODE-0.13\INCLUDE" /IC:\USERS\RYO\DOCUMENTS\INCLUDE\GLFW\INCLUDE /IC:\USERS\RYO\DOCUMENTS\INCLUDE\EIGEN /IC:\USERS\RYO\DOCUMENTS\INCLUDE\FREEGLUT\INCLUDE /I"C:\USERS\RYO\DOCUMENTS\INCLUDE\CEREAL-MASTER\INCLUDE" /ZI /nologo /W3 /WX- /diagnostics:classic /sdl /Od /D _DEBUG /D _CONSOLE /D _UNICODE /D UNICODE /Gm- /EHsc /RTC1 /MDd /GS /fp:precise /Zc:wchar_t /Zc:forScope /Zc:inline /Fo"X64\DEBUG\\" /Fd"X64\DEBUG\VC141.PDB" /Gd /TP /FC C:\USERS\RYO\DESKTOP\EVOCREATURE - コピー\EVOCREATURE\PHENOTYPE.CPP
^C:\USERS\RYO\DESKTOP\EVOCREATURESEKI\EVOCREATURE\BASENODE.CPP
/c /I"C:\USERS\RYO\DOCUMENTS\INCLUDE\ODE-0.13\INCLUDE" /IC:\USERS\RYO\DOCUMENTS\INCLUDE\GLFW\INCLUDE /IC:\USERS\RYO\DOCUMENTS\INCLUDE\EIGEN /IC:\USERS\RYO\DOCUMENTS\INCLUDE\FREEGLUT\INCLUDE /I"C:\USERS\RYO\DOCUMENTS\INCLUDE\CEREAL-MASTER\INCLUDE" /ZI /nologo /W3 /WX- /diagnostics:classic /sdl /Od /D _DEBUG /D _CONSOLE /D _UNICODE /D UNICODE /Gm- /EHsc /RTC1 /MDd /GS /fp:precise /Zc:wchar_t /Zc:forScope /Zc:inline /Fo"X64\DEBUG\\" /Fd"X64\DEBUG\VC141.PDB" /Gd /TP /FC C:\USERS\RYO\DESKTOP\EVOCREATURESEKI\EVOCREATURE\BASENODE.CPP
^C:\USERS\RYO\DESKTOP\EVOCREATURESEKI\EVOCREATURE\BOX.CPP
/c /I"C:\USERS\RYO\DOCUMENTS\INCLUDE\ODE-0.13\INCLUDE" /IC:\USERS\RYO\DOCUMENTS\INCLUDE\GLFW\INCLUDE /IC:\USERS\RYO\DOCUMENTS\INCLUDE\EIGEN /IC:\USERS\RYO\DOCUMENTS\INCLUDE\FREEGLUT\INCLUDE /I"C:\USERS\RYO\DOCUMENTS\INCLUDE\CEREAL-MASTER\INCLUDE" /ZI /nologo /W3 /WX- /diagnostics:classic /sdl /Od /D _DEBUG /D _CONSOLE /D _UNICODE /D UNICODE /Gm- /EHsc /RTC1 /MDd /GS /fp:precise /Zc:wchar_t /Zc:forScope /Zc:inline /Fo"X64\DEBUG\\" /Fd"X64\DEBUG\VC141.PDB" /Gd /TP /FC C:\USERS\RYO\DESKTOP\EVOCREATURESEKI\EVOCREATURE\BOX.CPP
^C:\USERS\RYO\DESKTOP\EVOCREATURESEKI\EVOCREATURE\EFFECTORNEURON.CPP
/c /I"C:\USERS\RYO\DOCUMENTS\INCLUDE\ODE-0.13\INCLUDE" /IC:\USERS\RYO\DOCUMENTS\INCLUDE\GLFW\INCLUDE /IC:\USERS\RYO\DOCUMENTS\INCLUDE\EIGEN /IC:\USERS\RYO\DOCUMENTS\INCLUDE\FREEGLUT\INCLUDE /I"C:\USERS\RYO\DOCUMENTS\INCLUDE\CEREAL-MASTER\INCLUDE" /ZI /nologo /W3 /WX- /diagnostics:classic /sdl /Od /D _DEBUG /D _CONSOLE /D _UNICODE /D UNICODE /Gm- /EHsc /RTC1 /MDd /GS /fp:precise /Zc:wchar_t /Zc:forScope /Zc:inline /Fo"X64\DEBUG\\" /Fd"X64\DEBUG\VC141.PDB" /Gd /TP /FC C:\USERS\RYO\DESKTOP\EVOCREATURESEKI\EVOCREATURE\EFFECTORNEURON.CPP
^C:\USERS\RYO\DESKTOP\EVOCREATURESEKI\EVOCREATURE\GENOTYPE.CPP
/c /I"C:\USERS\RYO\DOCUMENTS\INCLUDE\ODE-0.13\INCLUDE" /IC:\USERS\RYO\DOCUMENTS\INCLUDE\GLFW\INCLUDE /IC:\USERS\RYO\DOCUMENTS\INCLUDE\EIGEN /IC:\USERS\RYO\DOCUMENTS\INCLUDE\FREEGLUT\INCLUDE /I"C:\USERS\RYO\DOCUMENTS\INCLUDE\CEREAL-MASTER\INCLUDE" /ZI /nologo /W3 /WX- /diagnostics:classic /sdl /Od /D _DEBUG /D _CONSOLE /D _UNICODE /D UNICODE /Gm- /EHsc /RTC1 /MDd /GS /fp:precise /Zc:wchar_t /Zc:forScope /Zc:inline /Fo"X64\DEBUG\\" /Fd"X64\DEBUG\VC141.PDB" /Gd /TP /FC C:\USERS\RYO\DESKTOP\EVOCREATURESEKI\EVOCREATURE\GENOTYPE.CPP
^C:\USERS\RYO\DESKTOP\EVOCREATURESEKI\EVOCREATURE\GENOTYPEARRAY.CPP
/c /I"C:\USERS\RYO\DOCUMENTS\INCLUDE\ODE-0.13\INCLUDE" /IC:\USERS\RYO\DOCUMENTS\INCLUDE\GLFW\INCLUDE /IC:\USERS\RYO\DOCUMENTS\INCLUDE\EIGEN /IC:\USERS\RYO\DOCUMENTS\INCLUDE\FREEGLUT\INCLUDE /I"C:\USERS\RYO\DOCUMENTS\INCLUDE\CEREAL-MASTER\INCLUDE" /ZI /nologo /W3 /WX- /diagnostics:classic /sdl /Od /D _DEBUG /D _CONSOLE /D _UNICODE /D UNICODE /Gm- /EHsc /RTC1 /MDd /GS /fp:precise /Zc:wchar_t /Zc:forScope /Zc:inline /Fo"X64\DEBUG\\" /Fd"X64\DEBUG\VC141.PDB" /Gd /TP /FC C:\USERS\RYO\DESKTOP\EVOCREATURESEKI\EVOCREATURE\GENOTYPEARRAY.CPP
^C:\USERS\RYO\DESKTOP\EVOCREATURESEKI\EVOCREATURE\HEADNODE.CPP
/c /I"C:\USERS\RYO\DOCUMENTS\INCLUDE\ODE-0.13\INCLUDE" /IC:\USERS\RYO\DOCUMENTS\INCLUDE\GLFW\INCLUDE /IC:\USERS\RYO\DOCUMENTS\INCLUDE\EIGEN /IC:\USERS\RYO\DOCUMENTS\INCLUDE\FREEGLUT\INCLUDE /I"C:\USERS\RYO\DOCUMENTS\INCLUDE\CEREAL-MASTER\INCLUDE" /ZI /nologo /W3 /WX- /diagnostics:classic /sdl /Od /D _DEBUG /D _CONSOLE /D _UNICODE /D UNICODE /Gm- /EHsc /RTC1 /MDd /GS /fp:precise /Zc:wchar_t /Zc:forScope /Zc:inline /Fo"X64\DEBUG\\" /Fd"X64\DEBUG\VC141.PDB" /Gd /TP /FC C:\USERS\RYO\DESKTOP\EVOCREATURESEKI\EVOCREATURE\HEADNODE.CPP
^C:\USERS\RYO\DESKTOP\EVOCREATURESEKI\EVOCREATURE\HINGEJOINT.CPP
/c /I"C:\USERS\RYO\DOCUMENTS\INCLUDE\ODE-0.13\INCLUDE" /IC:\USERS\RYO\DOCUMENTS\INCLUDE\GLFW\INCLUDE /IC:\USERS\RYO\DOCUMENTS\INCLUDE\EIGEN /IC:\USERS\RYO\DOCUMENTS\INCLUDE\FREEGLUT\INCLUDE /I"C:\USERS\RYO\DOCUMENTS\INCLUDE\CEREAL-MASTER\INCLUDE" /ZI /nologo /W3 /WX- /diagnostics:classic /sdl /Od /D _DEBUG /D _CONSOLE /D _UNICODE /D UNICODE /Gm- /EHsc /RTC1 /MDd /GS /fp:precise /Zc:wchar_t /Zc:forScope /Zc:inline /Fo"X64\DEBUG\\" /Fd"X64\DEBUG\VC141.PDB" /Gd /TP /FC C:\USERS\RYO\DESKTOP\EVOCREATURESEKI\EVOCREATURE\HINGEJOINT.CPP
^C:\USERS\RYO\DESKTOP\EVOCREATURESEKI\EVOCREATURE\MAIN.CPP
/c /I"C:\USERS\RYO\DOCUMENTS\INCLUDE\ODE-0.13\INCLUDE" /IC:\USERS\RYO\DOCUMENTS\INCLUDE\GLFW\INCLUDE /IC:\USERS\RYO\DOCUMENTS\INCLUDE\EIGEN /IC:\USERS\RYO\DOCUMENTS\INCLUDE\FREEGLUT\INCLUDE /I"C:\USERS\RYO\DOCUMENTS\INCLUDE\CEREAL-MASTER\INCLUDE" /ZI /nologo /W3 /WX- /diagnostics:classic /sdl /Od /D _DEBUG /D _CONSOLE /D _UNICODE /D UNICODE /Gm- /EHsc /RTC1 /MDd /GS /fp:precise /Zc:wchar_t /Zc:forScope /Zc:inline /Fo"X64\DEBUG\\" /Fd"X64\DEBUG\VC141.PDB" /Gd /TP /FC C:\USERS\RYO\DESKTOP\EVOCREATURESEKI\EVOCREATURE\MAIN.CPP
^C:\USERS\RYO\DESKTOP\EVOCREATURESEKI\EVOCREATURE\NEUROCONNECTION.CPP
/c /I"C:\USERS\RYO\DOCUMENTS\INCLUDE\ODE-0.13\INCLUDE" /IC:\USERS\RYO\DOCUMENTS\INCLUDE\GLFW\INCLUDE /IC:\USERS\RYO\DOCUMENTS\INCLUDE\EIGEN /IC:\USERS\RYO\DOCUMENTS\INCLUDE\FREEGLUT\INCLUDE /I"C:\USERS\RYO\DOCUMENTS\INCLUDE\CEREAL-MASTER\INCLUDE" /ZI /nologo /W3 /WX- /diagnostics:classic /sdl /Od /D _DEBUG /D _CONSOLE /D _UNICODE /D UNICODE /Gm- /EHsc /RTC1 /MDd /GS /fp:precise /Zc:wchar_t /Zc:forScope /Zc:inline /Fo"X64\DEBUG\\" /Fd"X64\DEBUG\VC141.PDB" /Gd /TP /FC C:\USERS\RYO\DESKTOP\EVOCREATURESEKI\EVOCREATURE\NEUROCONNECTION.CPP
^C:\USERS\RYO\DESKTOP\EVOCREATURESEKI\EVOCREATURE\NORMALNEURON.CPP
/c /I"C:\USERS\RYO\DOCUMENTS\INCLUDE\ODE-0.13\INCLUDE" /IC:\USERS\RYO\DOCUMENTS\INCLUDE\GLFW\INCLUDE /IC:\USERS\RYO\DOCUMENTS\INCLUDE\EIGEN /IC:\USERS\RYO\DOCUMENTS\INCLUDE\FREEGLUT\INCLUDE /I"C:\USERS\RYO\DOCUMENTS\INCLUDE\CEREAL-MASTER\INCLUDE" /ZI /nologo /W3 /WX- /diagnostics:classic /sdl /Od /D _DEBUG /D _CONSOLE /D _UNICODE /D UNICODE /Gm- /EHsc /RTC1 /MDd /GS /fp:precise /Zc:wchar_t /Zc:forScope /Zc:inline /Fo"X64\DEBUG\\" /Fd"X64\DEBUG\VC141.PDB" /Gd /TP /FC C:\USERS\RYO\DESKTOP\EVOCREATURESEKI\EVOCREATURE\NORMALNEURON.CPP
^C:\USERS\RYO\DESKTOP\EVOCREATURESEKI\EVOCREATURE\NORMALNODE.CPP
/c /I"C:\USERS\RYO\DOCUMENTS\INCLUDE\ODE-0.13\INCLUDE" /IC:\USERS\RYO\DOCUMENTS\INCLUDE\GLFW\INCLUDE /IC:\USERS\RYO\DOCUMENTS\INCLUDE\EIGEN /IC:\USERS\RYO\DOCUMENTS\INCLUDE\FREEGLUT\INCLUDE /I"C:\USERS\RYO\DOCUMENTS\INCLUDE\CEREAL-MASTER\INCLUDE" /ZI /nologo /W3 /WX- /diagnostics:classic /sdl /Od /D _DEBUG /D _CONSOLE /D _UNICODE /D UNICODE /Gm- /EHsc /RTC1 /MDd /GS /fp:precise /Zc:wchar_t /Zc:forScope /Zc:inline /Fo"X64\DEBUG\\" /Fd"X64\DEBUG\VC141.PDB" /Gd /TP /FC C:\USERS\RYO\DESKTOP\EVOCREATURESEKI\EVOCREATURE\NORMALNODE.CPP
^C:\USERS\RYO\DESKTOP\EVOCREATURESEKI\EVOCREATURE\RANDOMOPERATION.CPP
/c /I"C:\USERS\RYO\DOCUMENTS\INCLUDE\ODE-0.13\INCLUDE" /IC:\USERS\RYO\DOCUMENTS\INCLUDE\GLFW\INCLUDE /IC:\USERS\RYO\DOCUMENTS\INCLUDE\EIGEN /IC:\USERS\RYO\DOCUMENTS\INCLUDE\FREEGLUT\INCLUDE /I"C:\USERS\RYO\DOCUMENTS\INCLUDE\CEREAL-MASTER\INCLUDE" /ZI /nologo /W3 /WX- /diagnostics:classic /sdl /Od /D _DEBUG /D _CONSOLE /D _UNICODE /D UNICODE /Gm- /EHsc /RTC1 /MDd /GS /fp:precise /Zc:wchar_t /Zc:forScope /Zc:inline /Fo"X64\DEBUG\\" /Fd"X64\DEBUG\VC141.PDB" /Gd /TP /FC C:\USERS\RYO\DESKTOP\EVOCREATURESEKI\EVOCREATURE\RANDOMOPERATION.CPP
^C:\USERS\RYO\DESKTOP\EVOCREATURESEKI\EVOCREATURE\RAY.CPP
/c /I"C:\USERS\RYO\DOCUMENTS\INCLUDE\ODE-0.13\INCLUDE" /IC:\USERS\RYO\DOCUMENTS\INCLUDE\GLFW\INCLUDE /IC:\USERS\RYO\DOCUMENTS\INCLUDE\EIGEN /IC:\USERS\RYO\DOCUMENTS\INCLUDE\FREEGLUT\INCLUDE /I"C:\USERS\RYO\DOCUMENTS\INCLUDE\CEREAL-MASTER\INCLUDE" /ZI /nologo /W3 /WX- /diagnostics:classic /sdl /Od /D _DEBUG /D _CONSOLE /D _UNICODE /D UNICODE /Gm- /EHsc /RTC1 /MDd /GS /fp:precise /Zc:wchar_t /Zc:forScope /Zc:inline /Fo"X64\DEBUG\\" /Fd"X64\DEBUG\VC141.PDB" /Gd /TP /FC C:\USERS\RYO\DESKTOP\EVOCREATURESEKI\EVOCREATURE\RAY.CPP
^C:\USERS\RYO\DESKTOP\EVOCREATURESEKI\EVOCREATURE\SENSOR.CPP
/c /I"C:\USERS\RYO\DOCUMENTS\INCLUDE\ODE-0.13\INCLUDE" /IC:\USERS\RYO\DOCUMENTS\INCLUDE\GLFW\INCLUDE /IC:\USERS\RYO\DOCUMENTS\INCLUDE\EIGEN /IC:\USERS\RYO\DOCUMENTS\INCLUDE\FREEGLUT\INCLUDE /I"C:\USERS\RYO\DOCUMENTS\INCLUDE\CEREAL-MASTER\INCLUDE" /ZI /nologo /W3 /WX- /diagnostics:classic /sdl /Od /D _DEBUG /D _CONSOLE /D _UNICODE /D UNICODE /Gm- /EHsc /RTC1 /MDd /GS /fp:precise /Zc:wchar_t /Zc:forScope /Zc:inline /Fo"X64\DEBUG\\" /Fd"X64\DEBUG\VC141.PDB" /Gd /TP /FC C:\USERS\RYO\DESKTOP\EVOCREATURESEKI\EVOCREATURE\SENSOR.CPP
^C:\USERS\RYO\DESKTOP\EVOCREATURESEKI\EVOCREATURE\SENSORNEURON.CPP
/c /I"C:\USERS\RYO\DOCUMENTS\INCLUDE\ODE-0.13\INCLUDE" /IC:\USERS\RYO\DOCUMENTS\INCLUDE\GLFW\INCLUDE /IC:\USERS\RYO\DOCUMENTS\INCLUDE\EIGEN /IC:\USERS\RYO\DOCUMENTS\INCLUDE\FREEGLUT\INCLUDE /I"C:\USERS\RYO\DOCUMENTS\INCLUDE\CEREAL-MASTER\INCLUDE" /ZI /nologo /W3 /WX- /diagnostics:classic /sdl /Od /D _DEBUG /D _CONSOLE /D _UNICODE /D UNICODE /Gm- /EHsc /RTC1 /MDd /GS /fp:precise /Zc:wchar_t /Zc:forScope /Zc:inline /Fo"X64\DEBUG\\" /Fd"X64\DEBUG\VC141.PDB" /Gd /TP /FC C:\USERS\RYO\DESKTOP\EVOCREATURESEKI\EVOCREATURE\SENSORNEURON.CPP
^C:\USERS\RYO\DESKTOP\EVOCREATURESEKI\EVOCREATURE\FUNCTION.CPP
/c /I"C:\USERS\RYO\DOCUMENTS\INCLUDE\ODE-0.13\INCLUDE" /IC:\USERS\RYO\DOCUMENTS\INCLUDE\GLFW\INCLUDE /IC:\USERS\RYO\DOCUMENTS\INCLUDE\EIGEN /IC:\USERS\RYO\DOCUMENTS\INCLUDE\FREEGLUT\INCLUDE /I"C:\USERS\RYO\DOCUMENTS\INCLUDE\CEREAL-MASTER\INCLUDE" /ZI /nologo /W3 /WX- /diagnostics:classic /sdl /Od /D _DEBUG /D _CONSOLE /D _UNICODE /D UNICODE /Gm- /EHsc /RTC1 /MDd /GS /fp:precise /Zc:wchar_t /Zc:forScope /Zc:inline /Fo"X64\DEBUG\\" /Fd"X64\DEBUG\VC141.PDB" /Gd /TP /FC C:\USERS\RYO\DESKTOP\EVOCREATURESEKI\EVOCREATURE\FUNCTION.CPP
^C:\USERS\RYO\DESKTOP\EVOCREATURESEKI\EVOCREATURE\PARAMETER.CPP
/c /I"C:\USERS\RYO\DOCUMENTS\INCLUDE\ODE-0.13\INCLUDE" /IC:\USERS\RYO\DOCUMENTS\INCLUDE\GLFW\INCLUDE /IC:\USERS\RYO\DOCUMENTS\INCLUDE\EIGEN /IC:\USERS\RYO\DOCUMENTS\INCLUDE\FREEGLUT\INCLUDE /I"C:\USERS\RYO\DOCUMENTS\INCLUDE\CEREAL-MASTER\INCLUDE" /ZI /nologo /W3 /WX- /diagnostics:classic /sdl /Od /D _DEBUG /D _CONSOLE /D _UNICODE /D UNICODE /Gm- /EHsc /RTC1 /MDd /GS /fp:precise /Zc:wchar_t /Zc:forScope /Zc:inline /Fo"X64\DEBUG\\" /Fd"X64\DEBUG\VC141.PDB" /Gd /TP /FC C:\USERS\RYO\DESKTOP\EVOCREATURESEKI\EVOCREATURE\PARAMETER.CPP
^C:\USERS\RYO\DESKTOP\EVOCREATURESEKI\EVOCREATURE\SINGLETON.CPP
/c /I"C:\USERS\RYO\DOCUMENTS\INCLUDE\ODE-0.13\INCLUDE" /IC:\USERS\RYO\DOCUMENTS\INCLUDE\GLFW\INCLUDE /IC:\USERS\RYO\DOCUMENTS\INCLUDE\EIGEN /IC:\USERS\RYO\DOCUMENTS\INCLUDE\FREEGLUT\INCLUDE /I"C:\USERS\RYO\DOCUMENTS\INCLUDE\CEREAL-MASTER\INCLUDE" /ZI /nologo /W3 /WX- /diagnostics:classic /sdl /Od /D _DEBUG /D _CONSOLE /D _UNICODE /D UNICODE /Gm- /EHsc /RTC1 /MDd /GS /fp:precise /Zc:wchar_t /Zc:forScope /Zc:inline /Fo"X64\DEBUG\\" /Fd"X64\DEBUG\VC141.PDB" /Gd /TP /FC C:\USERS\RYO\DESKTOP\EVOCREATURESEKI\EVOCREATURE\SINGLETON.CPP
