^D:\EVOCREATURE\EVOCREATURE\AGENT.CPP
/c /I"C:\INCLUDE\CEREAL-MASTER\INCLUDE" /IC:\INCLUDE\FREEGLUT\INCLUDE /IC:\INCLUDE\EIGEN /I"C:\INCLUDE\ODE-0.13\INCLUDE" /IC:\INCLUDE\GLFW\INCLUDE /ZI /nologo /W3 /WX- /diagnostics:classic /sdl /Od /Oy- /D WIN32 /D _DEBUG /D _CONSOLE /D _UNICODE /D UNICODE /Gm /EHsc /RTC1 /MDd /GS /fp:precise /Zc:wchar_t /Zc:forScope /Zc:inline /Fo"DEBUG\\" /Fd"DEBUG\VC141.PDB" /Gd /TP /analyze- D:\EVOCREATURE\EVOCREATURE\AGENT.CPP
^D:\EVOCREATURE\EVOCREATURE\BASENEURON.CPP
/c /I"C:\INCLUDE\CEREAL-MASTER\INCLUDE" /IC:\INCLUDE\FREEGLUT\INCLUDE /IC:\INCLUDE\EIGEN /I"C:\INCLUDE\ODE-0.13\INCLUDE" /IC:\INCLUDE\GLFW\INCLUDE /ZI /nologo /W3 /WX- /diagnostics:classic /sdl /Od /Oy- /D WIN32 /D _DEBUG /D _CONSOLE /D _UNICODE /D UNICODE /Gm /EHsc /RTC1 /MDd /GS /fp:precise /Zc:wchar_t /Zc:forScope /Zc:inline /Fo"DEBUG\\" /Fd"DEBUG\VC141.PDB" /Gd /TP /analyze- D:\EVOCREATURE\EVOCREATURE\BASENEURON.CPP
^D:\EVOCREATURE\EVOCREATURE\BASENODE.CPP
/c /I"C:\INCLUDE\CEREAL-MASTER\INCLUDE" /IC:\INCLUDE\FREEGLUT\INCLUDE /IC:\INCLUDE\EIGEN /I"C:\INCLUDE\ODE-0.13\INCLUDE" /IC:\INCLUDE\GLFW\INCLUDE /ZI /nologo /W3 /WX- /diagnostics:classic /sdl /Od /Oy- /D WIN32 /D _DEBUG /D _CONSOLE /D _UNICODE /D UNICODE /Gm /EHsc /RTC1 /MDd /GS /fp:precise /Zc:wchar_t /Zc:forScope /Zc:inline /Fo"DEBUG\\" /Fd"DEBUG\VC141.PDB" /Gd /TP /analyze- D:\EVOCREATURE\EVOCREATURE\BASENODE.CPP
^D:\EVOCREATURE\EVOCREATURE\BOX.CPP
/c /I"C:\INCLUDE\CEREAL-MASTER\INCLUDE" /IC:\INCLUDE\FREEGLUT\INCLUDE /IC:\INCLUDE\EIGEN /I"C:\INCLUDE\ODE-0.13\INCLUDE" /IC:\INCLUDE\GLFW\INCLUDE /ZI /nologo /W3 /WX- /diagnostics:classic /sdl /Od /Oy- /D WIN32 /D _DEBUG /D _CONSOLE /D _UNICODE /D UNICODE /Gm /EHsc /RTC1 /MDd /GS /fp:precise /Zc:wchar_t /Zc:forScope /Zc:inline /Fo"DEBUG\\" /Fd"DEBUG\VC141.PDB" /Gd /TP /analyze- D:\EVOCREATURE\EVOCREATURE\BOX.CPP
^D:\EVOCREATURE\EVOCREATURE\CAMERA.CPP
/c /I"C:\INCLUDE\CEREAL-MASTER\INCLUDE" /IC:\INCLUDE\FREEGLUT\INCLUDE /IC:\INCLUDE\EIGEN /I"C:\INCLUDE\ODE-0.13\INCLUDE" /IC:\INCLUDE\GLFW\INCLUDE /ZI /nologo /W3 /WX- /diagnostics:classic /sdl /Od /Oy- /D WIN32 /D _DEBUG /D _CONSOLE /D _UNICODE /D UNICODE /Gm /EHsc /RTC1 /MDd /GS /fp:precise /Zc:wchar_t /Zc:forScope /Zc:inline /Fo"DEBUG\\" /Fd"DEBUG\VC141.PDB" /Gd /TP /analyze- D:\EVOCREATURE\EVOCREATURE\CAMERA.CPP
^D:\EVOCREATURE\EVOCREATURE\COMPONENT.CPP
/c /I"C:\INCLUDE\CEREAL-MASTER\INCLUDE" /IC:\INCLUDE\FREEGLUT\INCLUDE /IC:\INCLUDE\EIGEN /I"C:\INCLUDE\ODE-0.13\INCLUDE" /IC:\INCLUDE\GLFW\INCLUDE /ZI /nologo /W3 /WX- /diagnostics:classic /sdl /Od /Oy- /D WIN32 /D _DEBUG /D _CONSOLE /D _UNICODE /D UNICODE /Gm /EHsc /RTC1 /MDd /GS /fp:precise /Zc:wchar_t /Zc:forScope /Zc:inline /Fo"DEBUG\\" /Fd"DEBUG\VC141.PDB" /Gd /TP /analyze- D:\EVOCREATURE\EVOCREATURE\COMPONENT.CPP
^D:\EVOCREATURE\EVOCREATURE\CONNECTION.CPP
/c /I"C:\INCLUDE\CEREAL-MASTER\INCLUDE" /IC:\INCLUDE\FREEGLUT\INCLUDE /IC:\INCLUDE\EIGEN /I"C:\INCLUDE\ODE-0.13\INCLUDE" /IC:\INCLUDE\GLFW\INCLUDE /ZI /nologo /W3 /WX- /diagnostics:classic /sdl /Od /Oy- /D WIN32 /D _DEBUG /D _CONSOLE /D _UNICODE /D UNICODE /Gm /EHsc /RTC1 /MDd /GS /fp:precise /Zc:wchar_t /Zc:forScope /Zc:inline /Fo"DEBUG\\" /Fd"DEBUG\VC141.PDB" /Gd /TP /analyze- D:\EVOCREATURE\EVOCREATURE\CONNECTION.CPP
^D:\EVOCREATURE\EVOCREATURE\EFFECTORNEURON.CPP
/c /I"C:\INCLUDE\CEREAL-MASTER\INCLUDE" /IC:\INCLUDE\FREEGLUT\INCLUDE /IC:\INCLUDE\EIGEN /I"C:\INCLUDE\ODE-0.13\INCLUDE" /IC:\INCLUDE\GLFW\INCLUDE /ZI /nologo /W3 /WX- /diagnostics:classic /sdl /Od /Oy- /D WIN32 /D _DEBUG /D _CONSOLE /D _UNICODE /D UNICODE /Gm /EHsc /RTC1 /MDd /GS /fp:precise /Zc:wchar_t /Zc:forScope /Zc:inline /Fo"DEBUG\\" /Fd"DEBUG\VC141.PDB" /Gd /TP /analyze- D:\EVOCREATURE\EVOCREATURE\EFFECTORNEURON.CPP
^D:\EVOCREATURE\EVOCREATURE\DRAWINGWINDOW.CPP
/c /I"C:\INCLUDE\CEREAL-MASTER\INCLUDE" /IC:\INCLUDE\FREEGLUT\INCLUDE /IC:\INCLUDE\EIGEN /I"C:\INCLUDE\ODE-0.13\INCLUDE" /IC:\INCLUDE\GLFW\INCLUDE /ZI /nologo /W3 /WX- /diagnostics:classic /sdl /Od /Oy- /D WIN32 /D _DEBUG /D _CONSOLE /D _UNICODE /D UNICODE /Gm /EHsc /RTC1 /MDd /GS /fp:precise /Zc:wchar_t /Zc:forScope /Zc:inline /Fo"DEBUG\\" /Fd"DEBUG\VC141.PDB" /Gd /TP /analyze- D:\EVOCREATURE\EVOCREATURE\DRAWINGWINDOW.CPP
^D:\EVOCREATURE\EVOCREATURE\DYNAMICSWORLD.CPP
/c /I"C:\INCLUDE\CEREAL-MASTER\INCLUDE" /IC:\INCLUDE\FREEGLUT\INCLUDE /IC:\INCLUDE\EIGEN /I"C:\INCLUDE\ODE-0.13\INCLUDE" /IC:\INCLUDE\GLFW\INCLUDE /ZI /nologo /W3 /WX- /diagnostics:classic /sdl /Od /Oy- /D WIN32 /D _DEBUG /D _CONSOLE /D _UNICODE /D UNICODE /Gm /EHsc /RTC1 /MDd /GS /fp:precise /Zc:wchar_t /Zc:forScope /Zc:inline /Fo"DEBUG\\" /Fd"DEBUG\VC141.PDB" /Gd /TP /analyze- D:\EVOCREATURE\EVOCREATURE\DYNAMICSWORLD.CPP
^D:\EVOCREATURE\EVOCREATURE\GENEPOOL.CPP
/c /I"C:\INCLUDE\CEREAL-MASTER\INCLUDE" /IC:\INCLUDE\FREEGLUT\INCLUDE /IC:\INCLUDE\EIGEN /I"C:\INCLUDE\ODE-0.13\INCLUDE" /IC:\INCLUDE\GLFW\INCLUDE /ZI /nologo /W3 /WX- /diagnostics:classic /sdl /Od /Oy- /D WIN32 /D _DEBUG /D _CONSOLE /D _UNICODE /D UNICODE /Gm /EHsc /RTC1 /MDd /GS /fp:precise /Zc:wchar_t /Zc:forScope /Zc:inline /Fo"DEBUG\\" /Fd"DEBUG\VC141.PDB" /Gd /TP /analyze- D:\EVOCREATURE\EVOCREATURE\GENEPOOL.CPP
^D:\EVOCREATURE\EVOCREATURE\GENOTYPE.CPP
/c /I"C:\INCLUDE\CEREAL-MASTER\INCLUDE" /IC:\INCLUDE\FREEGLUT\INCLUDE /IC:\INCLUDE\EIGEN /I"C:\INCLUDE\ODE-0.13\INCLUDE" /IC:\INCLUDE\GLFW\INCLUDE /ZI /nologo /W3 /WX- /diagnostics:classic /sdl /Od /Oy- /D WIN32 /D _DEBUG /D _CONSOLE /D _UNICODE /D UNICODE /Gm /EHsc /RTC1 /MDd /GS /fp:precise /Zc:wchar_t /Zc:forScope /Zc:inline /Fo"DEBUG\\" /Fd"DEBUG\VC141.PDB" /Gd /TP /analyze- D:\EVOCREATURE\EVOCREATURE\GENOTYPE.CPP
^D:\EVOCREATURE\EVOCREATURE\GENOTYPEARRAY.CPP
/c /I"C:\INCLUDE\CEREAL-MASTER\INCLUDE" /IC:\INCLUDE\FREEGLUT\INCLUDE /IC:\INCLUDE\EIGEN /I"C:\INCLUDE\ODE-0.13\INCLUDE" /IC:\INCLUDE\GLFW\INCLUDE /ZI /nologo /W3 /WX- /diagnostics:classic /sdl /Od /Oy- /D WIN32 /D _DEBUG /D _CONSOLE /D _UNICODE /D UNICODE /Gm /EHsc /RTC1 /MDd /GS /fp:precise /Zc:wchar_t /Zc:forScope /Zc:inline /Fo"DEBUG\\" /Fd"DEBUG\VC141.PDB" /Gd /TP /analyze- D:\EVOCREATURE\EVOCREATURE\GENOTYPEARRAY.CPP
^D:\EVOCREATURE\EVOCREATURE\HEADNODE.CPP
/c /I"C:\INCLUDE\CEREAL-MASTER\INCLUDE" /IC:\INCLUDE\FREEGLUT\INCLUDE /IC:\INCLUDE\EIGEN /I"C:\INCLUDE\ODE-0.13\INCLUDE" /IC:\INCLUDE\GLFW\INCLUDE /ZI /nologo /W3 /WX- /diagnostics:classic /sdl /Od /Oy- /D WIN32 /D _DEBUG /D _CONSOLE /D _UNICODE /D UNICODE /Gm /EHsc /RTC1 /MDd /GS /fp:precise /Zc:wchar_t /Zc:forScope /Zc:inline /Fo"DEBUG\\" /Fd"DEBUG\VC141.PDB" /Gd /TP /analyze- D:\EVOCREATURE\EVOCREATURE\HEADNODE.CPP
^D:\EVOCREATURE\EVOCREATURE\HINGEJOINT.CPP
/c /I"C:\INCLUDE\CEREAL-MASTER\INCLUDE" /IC:\INCLUDE\FREEGLUT\INCLUDE /IC:\INCLUDE\EIGEN /I"C:\INCLUDE\ODE-0.13\INCLUDE" /IC:\INCLUDE\GLFW\INCLUDE /ZI /nologo /W3 /WX- /diagnostics:classic /sdl /Od /Oy- /D WIN32 /D _DEBUG /D _CONSOLE /D _UNICODE /D UNICODE /Gm /EHsc /RTC1 /MDd /GS /fp:precise /Zc:wchar_t /Zc:forScope /Zc:inline /Fo"DEBUG\\" /Fd"DEBUG\VC141.PDB" /Gd /TP /analyze- D:\EVOCREATURE\EVOCREATURE\HINGEJOINT.CPP
^D:\EVOCREATURE\EVOCREATURE\MAIN.CPP
/c /I"C:\INCLUDE\CEREAL-MASTER\INCLUDE" /IC:\INCLUDE\FREEGLUT\INCLUDE /IC:\INCLUDE\EIGEN /I"C:\INCLUDE\ODE-0.13\INCLUDE" /IC:\INCLUDE\GLFW\INCLUDE /ZI /nologo /W3 /WX- /diagnostics:classic /sdl /Od /Oy- /D WIN32 /D _DEBUG /D _CONSOLE /D _UNICODE /D UNICODE /Gm /EHsc /RTC1 /MDd /GS /fp:precise /Zc:wchar_t /Zc:forScope /Zc:inline /Fo"DEBUG\\" /Fd"DEBUG\VC141.PDB" /Gd /TP /analyze- D:\EVOCREATURE\EVOCREATURE\MAIN.CPP
^D:\EVOCREATURE\EVOCREATURE\NEURALNETWORK.CPP
/c /I"C:\INCLUDE\CEREAL-MASTER\INCLUDE" /IC:\INCLUDE\FREEGLUT\INCLUDE /IC:\INCLUDE\EIGEN /I"C:\INCLUDE\ODE-0.13\INCLUDE" /IC:\INCLUDE\GLFW\INCLUDE /ZI /nologo /W3 /WX- /diagnostics:classic /sdl /Od /Oy- /D WIN32 /D _DEBUG /D _CONSOLE /D _UNICODE /D UNICODE /Gm /EHsc /RTC1 /MDd /GS /fp:precise /Zc:wchar_t /Zc:forScope /Zc:inline /Fo"DEBUG\\" /Fd"DEBUG\VC141.PDB" /Gd /TP /analyze- D:\EVOCREATURE\EVOCREATURE\NEURALNETWORK.CPP
^D:\EVOCREATURE\EVOCREATURE\NEUROCONNECTION.CPP
/c /I"C:\INCLUDE\CEREAL-MASTER\INCLUDE" /IC:\INCLUDE\FREEGLUT\INCLUDE /IC:\INCLUDE\EIGEN /I"C:\INCLUDE\ODE-0.13\INCLUDE" /IC:\INCLUDE\GLFW\INCLUDE /ZI /nologo /W3 /WX- /diagnostics:classic /sdl /Od /Oy- /D WIN32 /D _DEBUG /D _CONSOLE /D _UNICODE /D UNICODE /Gm /EHsc /RTC1 /MDd /GS /fp:precise /Zc:wchar_t /Zc:forScope /Zc:inline /Fo"DEBUG\\" /Fd"DEBUG\VC141.PDB" /Gd /TP /analyze- D:\EVOCREATURE\EVOCREATURE\NEUROCONNECTION.CPP
^D:\EVOCREATURE\EVOCREATURE\NORMALNEURON.CPP
/c /I"C:\INCLUDE\CEREAL-MASTER\INCLUDE" /IC:\INCLUDE\FREEGLUT\INCLUDE /IC:\INCLUDE\EIGEN /I"C:\INCLUDE\ODE-0.13\INCLUDE" /IC:\INCLUDE\GLFW\INCLUDE /ZI /nologo /W3 /WX- /diagnostics:classic /sdl /Od /Oy- /D WIN32 /D _DEBUG /D _CONSOLE /D _UNICODE /D UNICODE /Gm /EHsc /RTC1 /MDd /GS /fp:precise /Zc:wchar_t /Zc:forScope /Zc:inline /Fo"DEBUG\\" /Fd"DEBUG\VC141.PDB" /Gd /TP /analyze- D:\EVOCREATURE\EVOCREATURE\NORMALNEURON.CPP
^D:\EVOCREATURE\EVOCREATURE\NORMALNODE.CPP
/c /I"C:\INCLUDE\CEREAL-MASTER\INCLUDE" /IC:\INCLUDE\FREEGLUT\INCLUDE /IC:\INCLUDE\EIGEN /I"C:\INCLUDE\ODE-0.13\INCLUDE" /IC:\INCLUDE\GLFW\INCLUDE /ZI /nologo /W3 /WX- /diagnostics:classic /sdl /Od /Oy- /D WIN32 /D _DEBUG /D _CONSOLE /D _UNICODE /D UNICODE /Gm /EHsc /RTC1 /MDd /GS /fp:precise /Zc:wchar_t /Zc:forScope /Zc:inline /Fo"DEBUG\\" /Fd"DEBUG\VC141.PDB" /Gd /TP /analyze- D:\EVOCREATURE\EVOCREATURE\NORMALNODE.CPP
^D:\EVOCREATURE\EVOCREATURE\PHENOTYPE.CPP
/c /I"C:\INCLUDE\CEREAL-MASTER\INCLUDE" /IC:\INCLUDE\FREEGLUT\INCLUDE /IC:\INCLUDE\EIGEN /I"C:\INCLUDE\ODE-0.13\INCLUDE" /IC:\INCLUDE\GLFW\INCLUDE /ZI /nologo /W3 /WX- /diagnostics:classic /sdl /Od /Oy- /D WIN32 /D _DEBUG /D _CONSOLE /D _UNICODE /D UNICODE /Gm /EHsc /RTC1 /MDd /GS /fp:precise /Zc:wchar_t /Zc:forScope /Zc:inline /Fo"DEBUG\\" /Fd"DEBUG\VC141.PDB" /Gd /TP /analyze- D:\EVOCREATURE\EVOCREATURE\PHENOTYPE.CPP
^D:\EVOCREATURE\EVOCREATURE\PHYSICALPART.CPP
/c /I"C:\INCLUDE\CEREAL-MASTER\INCLUDE" /IC:\INCLUDE\FREEGLUT\INCLUDE /IC:\INCLUDE\EIGEN /I"C:\INCLUDE\ODE-0.13\INCLUDE" /IC:\INCLUDE\GLFW\INCLUDE /ZI /nologo /W3 /WX- /diagnostics:classic /sdl /Od /Oy- /D WIN32 /D _DEBUG /D _CONSOLE /D _UNICODE /D UNICODE /Gm /EHsc /RTC1 /MDd /GS /fp:precise /Zc:wchar_t /Zc:forScope /Zc:inline /Fo"DEBUG\\" /Fd"DEBUG\VC141.PDB" /Gd /TP /analyze- D:\EVOCREATURE\EVOCREATURE\PHYSICALPART.CPP
^D:\EVOCREATURE\EVOCREATURE\RANDOMOPERATION.CPP
/c /I"C:\INCLUDE\CEREAL-MASTER\INCLUDE" /IC:\INCLUDE\FREEGLUT\INCLUDE /IC:\INCLUDE\EIGEN /I"C:\INCLUDE\ODE-0.13\INCLUDE" /IC:\INCLUDE\GLFW\INCLUDE /ZI /nologo /W3 /WX- /diagnostics:classic /sdl /Od /Oy- /D WIN32 /D _DEBUG /D _CONSOLE /D _UNICODE /D UNICODE /Gm /EHsc /RTC1 /MDd /GS /fp:precise /Zc:wchar_t /Zc:forScope /Zc:inline /Fo"DEBUG\\" /Fd"DEBUG\VC141.PDB" /Gd /TP /analyze- D:\EVOCREATURE\EVOCREATURE\RANDOMOPERATION.CPP
^D:\EVOCREATURE\EVOCREATURE\RAY.CPP
/c /I"C:\INCLUDE\CEREAL-MASTER\INCLUDE" /IC:\INCLUDE\FREEGLUT\INCLUDE /IC:\INCLUDE\EIGEN /I"C:\INCLUDE\ODE-0.13\INCLUDE" /IC:\INCLUDE\GLFW\INCLUDE /ZI /nologo /W3 /WX- /diagnostics:classic /sdl /Od /Oy- /D WIN32 /D _DEBUG /D _CONSOLE /D _UNICODE /D UNICODE /Gm /EHsc /RTC1 /MDd /GS /fp:precise /Zc:wchar_t /Zc:forScope /Zc:inline /Fo"DEBUG\\" /Fd"DEBUG\VC141.PDB" /Gd /TP /analyze- D:\EVOCREATURE\EVOCREATURE\RAY.CPP
^D:\EVOCREATURE\EVOCREATURE\SENSOR.CPP
/c /I"C:\INCLUDE\CEREAL-MASTER\INCLUDE" /IC:\INCLUDE\FREEGLUT\INCLUDE /IC:\INCLUDE\EIGEN /I"C:\INCLUDE\ODE-0.13\INCLUDE" /IC:\INCLUDE\GLFW\INCLUDE /ZI /nologo /W3 /WX- /diagnostics:classic /sdl /Od /Oy- /D WIN32 /D _DEBUG /D _CONSOLE /D _UNICODE /D UNICODE /Gm /EHsc /RTC1 /MDd /GS /fp:precise /Zc:wchar_t /Zc:forScope /Zc:inline /Fo"DEBUG\\" /Fd"DEBUG\VC141.PDB" /Gd /TP /analyze- D:\EVOCREATURE\EVOCREATURE\SENSOR.CPP
^D:\EVOCREATURE\EVOCREATURE\SENSORNEURON.CPP
/c /I"C:\INCLUDE\CEREAL-MASTER\INCLUDE" /IC:\INCLUDE\FREEGLUT\INCLUDE /IC:\INCLUDE\EIGEN /I"C:\INCLUDE\ODE-0.13\INCLUDE" /IC:\INCLUDE\GLFW\INCLUDE /ZI /nologo /W3 /WX- /diagnostics:classic /sdl /Od /Oy- /D WIN32 /D _DEBUG /D _CONSOLE /D _UNICODE /D UNICODE /Gm /EHsc /RTC1 /MDd /GS /fp:precise /Zc:wchar_t /Zc:forScope /Zc:inline /Fo"DEBUG\\" /Fd"DEBUG\VC141.PDB" /Gd /TP /analyze- D:\EVOCREATURE\EVOCREATURE\SENSORNEURON.CPP
^D:\EVOCREATURE\EVOCREATURE\FUNCTION.CPP
/c /I"C:\INCLUDE\CEREAL-MASTER\INCLUDE" /IC:\INCLUDE\FREEGLUT\INCLUDE /IC:\INCLUDE\EIGEN /I"C:\INCLUDE\ODE-0.13\INCLUDE" /IC:\INCLUDE\GLFW\INCLUDE /ZI /nologo /W3 /WX- /diagnostics:classic /sdl /Od /Oy- /D WIN32 /D _DEBUG /D _CONSOLE /D _UNICODE /D UNICODE /Gm /EHsc /RTC1 /MDd /GS /fp:precise /Zc:wchar_t /Zc:forScope /Zc:inline /Fo"DEBUG\\" /Fd"DEBUG\VC141.PDB" /Gd /TP /analyze- D:\EVOCREATURE\EVOCREATURE\FUNCTION.CPP
^D:\EVOCREATURE\EVOCREATURE\PARAMETER.CPP
/c /I"C:\INCLUDE\CEREAL-MASTER\INCLUDE" /IC:\INCLUDE\FREEGLUT\INCLUDE /IC:\INCLUDE\EIGEN /I"C:\INCLUDE\ODE-0.13\INCLUDE" /IC:\INCLUDE\GLFW\INCLUDE /ZI /nologo /W3 /WX- /diagnostics:classic /sdl /Od /Oy- /D WIN32 /D _DEBUG /D _CONSOLE /D _UNICODE /D UNICODE /Gm /EHsc /RTC1 /MDd /GS /fp:precise /Zc:wchar_t /Zc:forScope /Zc:inline /Fo"DEBUG\\" /Fd"DEBUG\VC141.PDB" /Gd /TP /analyze- D:\EVOCREATURE\EVOCREATURE\PARAMETER.CPP
^D:\EVOCREATURE\EVOCREATURE\SINGLETON.CPP
/c /I"C:\INCLUDE\CEREAL-MASTER\INCLUDE" /IC:\INCLUDE\FREEGLUT\INCLUDE /IC:\INCLUDE\EIGEN /I"C:\INCLUDE\ODE-0.13\INCLUDE" /IC:\INCLUDE\GLFW\INCLUDE /ZI /nologo /W3 /WX- /diagnostics:classic /sdl /Od /Oy- /D WIN32 /D _DEBUG /D _CONSOLE /D _UNICODE /D UNICODE /Gm /EHsc /RTC1 /MDd /GS /fp:precise /Zc:wchar_t /Zc:forScope /Zc:inline /Fo"DEBUG\\" /Fd"DEBUG\VC141.PDB" /Gd /TP /analyze- D:\EVOCREATURE\EVOCREATURE\SINGLETON.CPP
^C:\USERS\RYO\DESKTOP\EVOCREATURE - コピー\EVOCREATURE\AGENT.CPP
/c /IC:\USERS\RYO\DOCUMENTS\INCLUDE2 /IC:\USERS\RYO\DOCUMENTS\INCLUDE\FREEGLUT\INCLUDE /IC:\USERS\RYO\DOCUMENTS\INCLUDE\GLFW\INCLUDE /I"C:\USERS\RYO\DOCUMENTS\INCLUDE\ODE-0.13\INCLUDE" /IC:\USERS\RYO\DOCUMENTS\INCLUDE\EIGEN /I"C:\USERS\RYO\DOCUMENTS\INCLUDE\CEREAL-MASTER\INCLUDE" /ZI /nologo /W3 /WX- /diagnostics:classic /sdl /Od /Oy- /D WIN32 /D _DEBUG /D _CONSOLE /D _UNICODE /D UNICODE /Gm- /EHsc /RTC1 /MDd /GS /fp:precise /Zc:wchar_t /Zc:forScope /Zc:inline /Fo"DEBUG\\" /Fd"DEBUG\VC141.PDB" /Gd /TP /analyze- /FC C:\USERS\RYO\DESKTOP\EVOCREATURE - コピー\EVOCREATURE\AGENT.CPP
^C:\USERS\RYO\DESKTOP\EVOCREATURE - コピー\EVOCREATURE\BASENEURON.CPP
/c /IC:\USERS\RYO\DOCUMENTS\INCLUDE2 /IC:\USERS\RYO\DOCUMENTS\INCLUDE\FREEGLUT\INCLUDE /IC:\USERS\RYO\DOCUMENTS\INCLUDE\GLFW\INCLUDE /I"C:\USERS\RYO\DOCUMENTS\INCLUDE\ODE-0.13\INCLUDE" /IC:\USERS\RYO\DOCUMENTS\INCLUDE\EIGEN /I"C:\USERS\RYO\DOCUMENTS\INCLUDE\CEREAL-MASTER\INCLUDE" /ZI /nologo /W3 /WX- /diagnostics:classic /sdl /Od /Oy- /D WIN32 /D _DEBUG /D _CONSOLE /D _UNICODE /D UNICODE /Gm- /EHsc /RTC1 /MDd /GS /fp:precise /Zc:wchar_t /Zc:forScope /Zc:inline /Fo"DEBUG\\" /Fd"DEBUG\VC141.PDB" /Gd /TP /analyze- /FC C:\USERS\RYO\DESKTOP\EVOCREATURE - コピー\EVOCREATURE\BASENEURON.CPP
^C:\USERS\RYO\DESKTOP\EVOCREATURE - コピー\EVOCREATURE\BASENODE.CPP
/c /IC:\USERS\RYO\DOCUMENTS\INCLUDE2 /IC:\USERS\RYO\DOCUMENTS\INCLUDE\FREEGLUT\INCLUDE /IC:\USERS\RYO\DOCUMENTS\INCLUDE\GLFW\INCLUDE /I"C:\USERS\RYO\DOCUMENTS\INCLUDE\ODE-0.13\INCLUDE" /IC:\USERS\RYO\DOCUMENTS\INCLUDE\EIGEN /I"C:\USERS\RYO\DOCUMENTS\INCLUDE\CEREAL-MASTER\INCLUDE" /ZI /nologo /W3 /WX- /diagnostics:classic /sdl /Od /Oy- /D WIN32 /D _DEBUG /D _CONSOLE /D _UNICODE /D UNICODE /Gm- /EHsc /RTC1 /MDd /GS /fp:precise /Zc:wchar_t /Zc:forScope /Zc:inline /Fo"DEBUG\\" /Fd"DEBUG\VC141.PDB" /Gd /TP /analyze- /FC C:\USERS\RYO\DESKTOP\EVOCREATURE - コピー\EVOCREATURE\BASENODE.CPP
^C:\USERS\RYO\DESKTOP\EVOCREATURE - コピー\EVOCREATURE\BOX.CPP
/c /IC:\USERS\RYO\DOCUMENTS\INCLUDE2 /IC:\USERS\RYO\DOCUMENTS\INCLUDE\FREEGLUT\INCLUDE /IC:\USERS\RYO\DOCUMENTS\INCLUDE\GLFW\INCLUDE /I"C:\USERS\RYO\DOCUMENTS\INCLUDE\ODE-0.13\INCLUDE" /IC:\USERS\RYO\DOCUMENTS\INCLUDE\EIGEN /I"C:\USERS\RYO\DOCUMENTS\INCLUDE\CEREAL-MASTER\INCLUDE" /ZI /nologo /W3 /WX- /diagnostics:classic /sdl /Od /Oy- /D WIN32 /D _DEBUG /D _CONSOLE /D _UNICODE /D UNICODE /Gm- /EHsc /RTC1 /MDd /GS /fp:precise /Zc:wchar_t /Zc:forScope /Zc:inline /Fo"DEBUG\\" /Fd"DEBUG\VC141.PDB" /Gd /TP /analyze- /FC C:\USERS\RYO\DESKTOP\EVOCREATURE - コピー\EVOCREATURE\BOX.CPP
^C:\USERS\RYO\DESKTOP\EVOCREATURE - コピー\EVOCREATURE\CAMERA.CPP
/c /IC:\USERS\RYO\DOCUMENTS\INCLUDE2 /IC:\USERS\RYO\DOCUMENTS\INCLUDE\FREEGLUT\INCLUDE /IC:\USERS\RYO\DOCUMENTS\INCLUDE\GLFW\INCLUDE /I"C:\USERS\RYO\DOCUMENTS\INCLUDE\ODE-0.13\INCLUDE" /IC:\USERS\RYO\DOCUMENTS\INCLUDE\EIGEN /I"C:\USERS\RYO\DOCUMENTS\INCLUDE\CEREAL-MASTER\INCLUDE" /ZI /nologo /W3 /WX- /diagnostics:classic /sdl /Od /Oy- /D WIN32 /D _DEBUG /D _CONSOLE /D _UNICODE /D UNICODE /Gm- /EHsc /RTC1 /MDd /GS /fp:precise /Zc:wchar_t /Zc:forScope /Zc:inline /Fo"DEBUG\\" /Fd"DEBUG\VC141.PDB" /Gd /TP /analyze- /FC C:\USERS\RYO\DESKTOP\EVOCREATURE - コピー\EVOCREATURE\CAMERA.CPP
^C:\USERS\RYO\DESKTOP\EVOCREATURE - コピー\EVOCREATURE\COMPONENT.CPP
/c /IC:\USERS\RYO\DOCUMENTS\INCLUDE2 /IC:\USERS\RYO\DOCUMENTS\INCLUDE\FREEGLUT\INCLUDE /IC:\USERS\RYO\DOCUMENTS\INCLUDE\GLFW\INCLUDE /I"C:\USERS\RYO\DOCUMENTS\INCLUDE\ODE-0.13\INCLUDE" /IC:\USERS\RYO\DOCUMENTS\INCLUDE\EIGEN /I"C:\USERS\RYO\DOCUMENTS\INCLUDE\CEREAL-MASTER\INCLUDE" /ZI /nologo /W3 /WX- /diagnostics:classic /sdl /Od /Oy- /D WIN32 /D _DEBUG /D _CONSOLE /D _UNICODE /D UNICODE /Gm- /EHsc /RTC1 /MDd /GS /fp:precise /Zc:wchar_t /Zc:forScope /Zc:inline /Fo"DEBUG\\" /Fd"DEBUG\VC141.PDB" /Gd /TP /analyze- /FC C:\USERS\RYO\DESKTOP\EVOCREATURE - コピー\EVOCREATURE\COMPONENT.CPP
^C:\USERS\RYO\DESKTOP\EVOCREATURE - コピー\EVOCREATURE\CONNECTION.CPP
/c /IC:\USERS\RYO\DOCUMENTS\INCLUDE2 /IC:\USERS\RYO\DOCUMENTS\INCLUDE\FREEGLUT\INCLUDE /IC:\USERS\RYO\DOCUMENTS\INCLUDE\GLFW\INCLUDE /I"C:\USERS\RYO\DOCUMENTS\INCLUDE\ODE-0.13\INCLUDE" /IC:\USERS\RYO\DOCUMENTS\INCLUDE\EIGEN /I"C:\USERS\RYO\DOCUMENTS\INCLUDE\CEREAL-MASTER\INCLUDE" /ZI /nologo /W3 /WX- /diagnostics:classic /sdl /Od /Oy- /D WIN32 /D _DEBUG /D _CONSOLE /D _UNICODE /D UNICODE /Gm- /EHsc /RTC1 /MDd /GS /fp:precise /Zc:wchar_t /Zc:forScope /Zc:inline /Fo"DEBUG\\" /Fd"DEBUG\VC141.PDB" /Gd /TP /analyze- /FC C:\USERS\RYO\DESKTOP\EVOCREATURE - コピー\EVOCREATURE\CONNECTION.CPP
^C:\USERS\RYO\DESKTOP\EVOCREATURE - コピー\EVOCREATURE\EFFECTORNEURON.CPP
/c /IC:\USERS\RYO\DOCUMENTS\INCLUDE2 /IC:\USERS\RYO\DOCUMENTS\INCLUDE\FREEGLUT\INCLUDE /IC:\USERS\RYO\DOCUMENTS\INCLUDE\GLFW\INCLUDE /I"C:\USERS\RYO\DOCUMENTS\INCLUDE\ODE-0.13\INCLUDE" /IC:\USERS\RYO\DOCUMENTS\INCLUDE\EIGEN /I"C:\USERS\RYO\DOCUMENTS\INCLUDE\CEREAL-MASTER\INCLUDE" /ZI /nologo /W3 /WX- /diagnostics:classic /sdl /Od /Oy- /D WIN32 /D _DEBUG /D _CONSOLE /D _UNICODE /D UNICODE /Gm- /EHsc /RTC1 /MDd /GS /fp:precise /Zc:wchar_t /Zc:forScope /Zc:inline /Fo"DEBUG\\" /Fd"DEBUG\VC141.PDB" /Gd /TP /analyze- /FC C:\USERS\RYO\DESKTOP\EVOCREATURE - コピー\EVOCREATURE\EFFECTORNEURON.CPP
^C:\USERS\RYO\DESKTOP\EVOCREATURE - コピー\EVOCREATURE\DRAWINGWINDOW.CPP
/c /IC:\USERS\RYO\DOCUMENTS\INCLUDE2 /IC:\USERS\RYO\DOCUMENTS\INCLUDE\FREEGLUT\INCLUDE /IC:\USERS\RYO\DOCUMENTS\INCLUDE\GLFW\INCLUDE /I"C:\USERS\RYO\DOCUMENTS\INCLUDE\ODE-0.13\INCLUDE" /IC:\USERS\RYO\DOCUMENTS\INCLUDE\EIGEN /I"C:\USERS\RYO\DOCUMENTS\INCLUDE\CEREAL-MASTER\INCLUDE" /ZI /nologo /W3 /WX- /diagnostics:classic /sdl /Od /Oy- /D WIN32 /D _DEBUG /D _CONSOLE /D _UNICODE /D UNICODE /Gm- /EHsc /RTC1 /MDd /GS /fp:precise /Zc:wchar_t /Zc:forScope /Zc:inline /Fo"DEBUG\\" /Fd"DEBUG\VC141.PDB" /Gd /TP /analyze- /FC C:\USERS\RYO\DESKTOP\EVOCREATURE - コピー\EVOCREATURE\DRAWINGWINDOW.CPP
^C:\USERS\RYO\DESKTOP\EVOCREATURE - コピー\EVOCREATURE\DYNAMICSWORLD.CPP
/c /IC:\USERS\RYO\DOCUMENTS\INCLUDE2 /IC:\USERS\RYO\DOCUMENTS\INCLUDE\FREEGLUT\INCLUDE /IC:\USERS\RYO\DOCUMENTS\INCLUDE\GLFW\INCLUDE /I"C:\USERS\RYO\DOCUMENTS\INCLUDE\ODE-0.13\INCLUDE" /IC:\USERS\RYO\DOCUMENTS\INCLUDE\EIGEN /I"C:\USERS\RYO\DOCUMENTS\INCLUDE\CEREAL-MASTER\INCLUDE" /ZI /nologo /W3 /WX- /diagnostics:classic /sdl /Od /Oy- /D WIN32 /D _DEBUG /D _CONSOLE /D _UNICODE /D UNICODE /Gm- /EHsc /RTC1 /MDd /GS /fp:precise /Zc:wchar_t /Zc:forScope /Zc:inline /Fo"DEBUG\\" /Fd"DEBUG\VC141.PDB" /Gd /TP /analyze- /FC C:\USERS\RYO\DESKTOP\EVOCREATURE - コピー\EVOCREATURE\DYNAMICSWORLD.CPP
^C:\USERS\RYO\DESKTOP\EVOCREATURE - コピー\EVOCREATURE\GENEPOOL.CPP
/c /IC:\USERS\RYO\DOCUMENTS\INCLUDE2 /IC:\USERS\RYO\DOCUMENTS\INCLUDE\FREEGLUT\INCLUDE /IC:\USERS\RYO\DOCUMENTS\INCLUDE\GLFW\INCLUDE /I"C:\USERS\RYO\DOCUMENTS\INCLUDE\ODE-0.13\INCLUDE" /IC:\USERS\RYO\DOCUMENTS\INCLUDE\EIGEN /I"C:\USERS\RYO\DOCUMENTS\INCLUDE\CEREAL-MASTER\INCLUDE" /ZI /nologo /W3 /WX- /diagnostics:classic /sdl /Od /Oy- /D WIN32 /D _DEBUG /D _CONSOLE /D _UNICODE /D UNICODE /Gm- /EHsc /RTC1 /MDd /GS /fp:precise /Zc:wchar_t /Zc:forScope /Zc:inline /Fo"DEBUG\\" /Fd"DEBUG\VC141.PDB" /Gd /TP /analyze- /FC C:\USERS\RYO\DESKTOP\EVOCREATURE - コピー\EVOCREATURE\GENEPOOL.CPP
^C:\USERS\RYO\DESKTOP\EVOCREATURE - コピー\EVOCREATURE\GENOTYPE.CPP
/c /IC:\USERS\RYO\DOCUMENTS\INCLUDE2 /IC:\USERS\RYO\DOCUMENTS\INCLUDE\FREEGLUT\INCLUDE /IC:\USERS\RYO\DOCUMENTS\INCLUDE\GLFW\INCLUDE /I"C:\USERS\RYO\DOCUMENTS\INCLUDE\ODE-0.13\INCLUDE" /IC:\USERS\RYO\DOCUMENTS\INCLUDE\EIGEN /I"C:\USERS\RYO\DOCUMENTS\INCLUDE\CEREAL-MASTER\INCLUDE" /ZI /nologo /W3 /WX- /diagnostics:classic /sdl /Od /Oy- /D WIN32 /D _DEBUG /D _CONSOLE /D _UNICODE /D UNICODE /Gm- /EHsc /RTC1 /MDd /GS /fp:precise /Zc:wchar_t /Zc:forScope /Zc:inline /Fo"DEBUG\\" /Fd"DEBUG\VC141.PDB" /Gd /TP /analyze- /FC C:\USERS\RYO\DESKTOP\EVOCREATURE - コピー\EVOCREATURE\GENOTYPE.CPP
^C:\USERS\RYO\DESKTOP\EVOCREATURE - コピー\EVOCREATURE\GENOTYPEARRAY.CPP
/c /IC:\USERS\RYO\DOCUMENTS\INCLUDE2 /IC:\USERS\RYO\DOCUMENTS\INCLUDE\FREEGLUT\INCLUDE /IC:\USERS\RYO\DOCUMENTS\INCLUDE\GLFW\INCLUDE /I"C:\USERS\RYO\DOCUMENTS\INCLUDE\ODE-0.13\INCLUDE" /IC:\USERS\RYO\DOCUMENTS\INCLUDE\EIGEN /I"C:\USERS\RYO\DOCUMENTS\INCLUDE\CEREAL-MASTER\INCLUDE" /ZI /nologo /W3 /WX- /diagnostics:classic /sdl /Od /Oy- /D WIN32 /D _DEBUG /D _CONSOLE /D _UNICODE /D UNICODE /Gm- /EHsc /RTC1 /MDd /GS /fp:precise /Zc:wchar_t /Zc:forScope /Zc:inline /Fo"DEBUG\\" /Fd"DEBUG\VC141.PDB" /Gd /TP /analyze- /FC C:\USERS\RYO\DESKTOP\EVOCREATURE - コピー\EVOCREATURE\GENOTYPEARRAY.CPP
^C:\USERS\RYO\DESKTOP\EVOCREATURE - コピー\EVOCREATURE\HEADNODE.CPP
/c /IC:\USERS\RYO\DOCUMENTS\INCLUDE2 /IC:\USERS\RYO\DOCUMENTS\INCLUDE\FREEGLUT\INCLUDE /IC:\USERS\RYO\DOCUMENTS\INCLUDE\GLFW\INCLUDE /I"C:\USERS\RYO\DOCUMENTS\INCLUDE\ODE-0.13\INCLUDE" /IC:\USERS\RYO\DOCUMENTS\INCLUDE\EIGEN /I"C:\USERS\RYO\DOCUMENTS\INCLUDE\CEREAL-MASTER\INCLUDE" /ZI /nologo /W3 /WX- /diagnostics:classic /sdl /Od /Oy- /D WIN32 /D _DEBUG /D _CONSOLE /D _UNICODE /D UNICODE /Gm- /EHsc /RTC1 /MDd /GS /fp:precise /Zc:wchar_t /Zc:forScope /Zc:inline /Fo"DEBUG\\" /Fd"DEBUG\VC141.PDB" /Gd /TP /analyze- /FC C:\USERS\RYO\DESKTOP\EVOCREATURE - コピー\EVOCREATURE\HEADNODE.CPP
^C:\USERS\RYO\DESKTOP\EVOCREATURE - コピー\EVOCREATURE\HINGEJOINT.CPP
/c /IC:\USERS\RYO\DOCUMENTS\INCLUDE2 /IC:\USERS\RYO\DOCUMENTS\INCLUDE\FREEGLUT\INCLUDE /IC:\USERS\RYO\DOCUMENTS\INCLUDE\GLFW\INCLUDE /I"C:\USERS\RYO\DOCUMENTS\INCLUDE\ODE-0.13\INCLUDE" /IC:\USERS\RYO\DOCUMENTS\INCLUDE\EIGEN /I"C:\USERS\RYO\DOCUMENTS\INCLUDE\CEREAL-MASTER\INCLUDE" /ZI /nologo /W3 /WX- /diagnostics:classic /sdl /Od /Oy- /D WIN32 /D _DEBUG /D _CONSOLE /D _UNICODE /D UNICODE /Gm- /EHsc /RTC1 /MDd /GS /fp:precise /Zc:wchar_t /Zc:forScope /Zc:inline /Fo"DEBUG\\" /Fd"DEBUG\VC141.PDB" /Gd /TP /analyze- /FC C:\USERS\RYO\DESKTOP\EVOCREATURE - コピー\EVOCREATURE\HINGEJOINT.CPP
^C:\USERS\RYO\DESKTOP\EVOCREATURE - コピー\EVOCREATURE\NEURALNETWORK.CPP
/c /IC:\USERS\RYO\DOCUMENTS\INCLUDE2 /IC:\USERS\RYO\DOCUMENTS\INCLUDE\FREEGLUT\INCLUDE /IC:\USERS\RYO\DOCUMENTS\INCLUDE\GLFW\INCLUDE /I"C:\USERS\RYO\DOCUMENTS\INCLUDE\ODE-0.13\INCLUDE" /IC:\USERS\RYO\DOCUMENTS\INCLUDE\EIGEN /I"C:\USERS\RYO\DOCUMENTS\INCLUDE\CEREAL-MASTER\INCLUDE" /ZI /nologo /W3 /WX- /diagnostics:classic /sdl /Od /Oy- /D WIN32 /D _DEBUG /D _CONSOLE /D _UNICODE /D UNICODE /Gm- /EHsc /RTC1 /MDd /GS /fp:precise /Zc:wchar_t /Zc:forScope /Zc:inline /Fo"DEBUG\\" /Fd"DEBUG\VC141.PDB" /Gd /TP /analyze- /FC C:\USERS\RYO\DESKTOP\EVOCREATURE - コピー\EVOCREATURE\NEURALNETWORK.CPP
^C:\USERS\RYO\DESKTOP\EVOCREATURE - コピー\EVOCREATURE\NEUROCONNECTION.CPP
/c /IC:\USERS\RYO\DOCUMENTS\INCLUDE2 /IC:\USERS\RYO\DOCUMENTS\INCLUDE\FREEGLUT\INCLUDE /IC:\USERS\RYO\DOCUMENTS\INCLUDE\GLFW\INCLUDE /I"C:\USERS\RYO\DOCUMENTS\INCLUDE\ODE-0.13\INCLUDE" /IC:\USERS\RYO\DOCUMENTS\INCLUDE\EIGEN /I"C:\USERS\RYO\DOCUMENTS\INCLUDE\CEREAL-MASTER\INCLUDE" /ZI /nologo /W3 /WX- /diagnostics:classic /sdl /Od /Oy- /D WIN32 /D _DEBUG /D _CONSOLE /D _UNICODE /D UNICODE /Gm- /EHsc /RTC1 /MDd /GS /fp:precise /Zc:wchar_t /Zc:forScope /Zc:inline /Fo"DEBUG\\" /Fd"DEBUG\VC141.PDB" /Gd /TP /analyze- /FC C:\USERS\RYO\DESKTOP\EVOCREATURE - コピー\EVOCREATURE\NEUROCONNECTION.CPP
^C:\USERS\RYO\DESKTOP\EVOCREATURE - コピー\EVOCREATURE\NORMALNEURON.CPP
/c /IC:\USERS\RYO\DOCUMENTS\INCLUDE2 /IC:\USERS\RYO\DOCUMENTS\INCLUDE\FREEGLUT\INCLUDE /IC:\USERS\RYO\DOCUMENTS\INCLUDE\GLFW\INCLUDE /I"C:\USERS\RYO\DOCUMENTS\INCLUDE\ODE-0.13\INCLUDE" /IC:\USERS\RYO\DOCUMENTS\INCLUDE\EIGEN /I"C:\USERS\RYO\DOCUMENTS\INCLUDE\CEREAL-MASTER\INCLUDE" /ZI /nologo /W3 /WX- /diagnostics:classic /sdl /Od /Oy- /D WIN32 /D _DEBUG /D _CONSOLE /D _UNICODE /D UNICODE /Gm- /EHsc /RTC1 /MDd /GS /fp:precise /Zc:wchar_t /Zc:forScope /Zc:inline /Fo"DEBUG\\" /Fd"DEBUG\VC141.PDB" /Gd /TP /analyze- /FC C:\USERS\RYO\DESKTOP\EVOCREATURE - コピー\EVOCREATURE\NORMALNEURON.CPP
^C:\USERS\RYO\DESKTOP\EVOCREATURE - コピー\EVOCREATURE\NORMALNODE.CPP
/c /IC:\USERS\RYO\DOCUMENTS\INCLUDE2 /IC:\USERS\RYO\DOCUMENTS\INCLUDE\FREEGLUT\INCLUDE /IC:\USERS\RYO\DOCUMENTS\INCLUDE\GLFW\INCLUDE /I"C:\USERS\RYO\DOCUMENTS\INCLUDE\ODE-0.13\INCLUDE" /IC:\USERS\RYO\DOCUMENTS\INCLUDE\EIGEN /I"C:\USERS\RYO\DOCUMENTS\INCLUDE\CEREAL-MASTER\INCLUDE" /ZI /nologo /W3 /WX- /diagnostics:classic /sdl /Od /Oy- /D WIN32 /D _DEBUG /D _CONSOLE /D _UNICODE /D UNICODE /Gm- /EHsc /RTC1 /MDd /GS /fp:precise /Zc:wchar_t /Zc:forScope /Zc:inline /Fo"DEBUG\\" /Fd"DEBUG\VC141.PDB" /Gd /TP /analyze- /FC C:\USERS\RYO\DESKTOP\EVOCREATURE - コピー\EVOCREATURE\NORMALNODE.CPP
^C:\USERS\RYO\DESKTOP\EVOCREATURE - コピー\EVOCREATURE\PHENOTYPE.CPP
/c /IC:\USERS\RYO\DOCUMENTS\INCLUDE2 /IC:\USERS\RYO\DOCUMENTS\INCLUDE\FREEGLUT\INCLUDE /IC:\USERS\RYO\DOCUMENTS\INCLUDE\GLFW\INCLUDE /I"C:\USERS\RYO\DOCUMENTS\INCLUDE\ODE-0.13\INCLUDE" /IC:\USERS\RYO\DOCUMENTS\INCLUDE\EIGEN /I"C:\USERS\RYO\DOCUMENTS\INCLUDE\CEREAL-MASTER\INCLUDE" /ZI /nologo /W3 /WX- /diagnostics:classic /sdl /Od /Oy- /D WIN32 /D _DEBUG /D _CONSOLE /D _UNICODE /D UNICODE /Gm- /EHsc /RTC1 /MDd /GS /fp:precise /Zc:wchar_t /Zc:forScope /Zc:inline /Fo"DEBUG\\" /Fd"DEBUG\VC141.PDB" /Gd /TP /analyze- /FC C:\USERS\RYO\DESKTOP\EVOCREATURE - コピー\EVOCREATURE\PHENOTYPE.CPP
^C:\USERS\RYO\DESKTOP\EVOCREATURE - コピー\EVOCREATURE\PHYSICALPART.CPP
/c /IC:\USERS\RYO\DOCUMENTS\INCLUDE2 /IC:\USERS\RYO\DOCUMENTS\INCLUDE\FREEGLUT\INCLUDE /IC:\USERS\RYO\DOCUMENTS\INCLUDE\GLFW\INCLUDE /I"C:\USERS\RYO\DOCUMENTS\INCLUDE\ODE-0.13\INCLUDE" /IC:\USERS\RYO\DOCUMENTS\INCLUDE\EIGEN /I"C:\USERS\RYO\DOCUMENTS\INCLUDE\CEREAL-MASTER\INCLUDE" /ZI /nologo /W3 /WX- /diagnostics:classic /sdl /Od /Oy- /D WIN32 /D _DEBUG /D _CONSOLE /D _UNICODE /D UNICODE /Gm- /EHsc /RTC1 /MDd /GS /fp:precise /Zc:wchar_t /Zc:forScope /Zc:inline /Fo"DEBUG\\" /Fd"DEBUG\VC141.PDB" /Gd /TP /analyze- /FC C:\USERS\RYO\DESKTOP\EVOCREATURE - コピー\EVOCREATURE\PHYSICALPART.CPP
^C:\USERS\RYO\DESKTOP\EVOCREATURE - コピー\EVOCREATURE\RANDOMOPERATION.CPP
/c /IC:\USERS\RYO\DOCUMENTS\INCLUDE2 /IC:\USERS\RYO\DOCUMENTS\INCLUDE\FREEGLUT\INCLUDE /IC:\USERS\RYO\DOCUMENTS\INCLUDE\GLFW\INCLUDE /I"C:\USERS\RYO\DOCUMENTS\INCLUDE\ODE-0.13\INCLUDE" /IC:\USERS\RYO\DOCUMENTS\INCLUDE\EIGEN /I"C:\USERS\RYO\DOCUMENTS\INCLUDE\CEREAL-MASTER\INCLUDE" /ZI /nologo /W3 /WX- /diagnostics:classic /sdl /Od /Oy- /D WIN32 /D _DEBUG /D _CONSOLE /D _UNICODE /D UNICODE /Gm- /EHsc /RTC1 /MDd /GS /fp:precise /Zc:wchar_t /Zc:forScope /Zc:inline /Fo"DEBUG\\" /Fd"DEBUG\VC141.PDB" /Gd /TP /analyze- /FC C:\USERS\RYO\DESKTOP\EVOCREATURE - コピー\EVOCREATURE\RANDOMOPERATION.CPP
^C:\USERS\RYO\DESKTOP\EVOCREATURE - コピー\EVOCREATURE\RAY.CPP
/c /IC:\USERS\RYO\DOCUMENTS\INCLUDE2 /IC:\USERS\RYO\DOCUMENTS\INCLUDE\FREEGLUT\INCLUDE /IC:\USERS\RYO\DOCUMENTS\INCLUDE\GLFW\INCLUDE /I"C:\USERS\RYO\DOCUMENTS\INCLUDE\ODE-0.13\INCLUDE" /IC:\USERS\RYO\DOCUMENTS\INCLUDE\EIGEN /I"C:\USERS\RYO\DOCUMENTS\INCLUDE\CEREAL-MASTER\INCLUDE" /ZI /nologo /W3 /WX- /diagnostics:classic /sdl /Od /Oy- /D WIN32 /D _DEBUG /D _CONSOLE /D _UNICODE /D UNICODE /Gm- /EHsc /RTC1 /MDd /GS /fp:precise /Zc:wchar_t /Zc:forScope /Zc:inline /Fo"DEBUG\\" /Fd"DEBUG\VC141.PDB" /Gd /TP /analyze- /FC C:\USERS\RYO\DESKTOP\EVOCREATURE - コピー\EVOCREATURE\RAY.CPP
^C:\USERS\RYO\DESKTOP\EVOCREATURE - コピー\EVOCREATURE\SENSOR.CPP
/c /IC:\USERS\RYO\DOCUMENTS\INCLUDE2 /IC:\USERS\RYO\DOCUMENTS\INCLUDE\FREEGLUT\INCLUDE /IC:\USERS\RYO\DOCUMENTS\INCLUDE\GLFW\INCLUDE /I"C:\USERS\RYO\DOCUMENTS\INCLUDE\ODE-0.13\INCLUDE" /IC:\USERS\RYO\DOCUMENTS\INCLUDE\EIGEN /I"C:\USERS\RYO\DOCUMENTS\INCLUDE\CEREAL-MASTER\INCLUDE" /ZI /nologo /W3 /WX- /diagnostics:classic /sdl /Od /Oy- /D WIN32 /D _DEBUG /D _CONSOLE /D _UNICODE /D UNICODE /Gm- /EHsc /RTC1 /MDd /GS /fp:precise /Zc:wchar_t /Zc:forScope /Zc:inline /Fo"DEBUG\\" /Fd"DEBUG\VC141.PDB" /Gd /TP /analyze- /FC C:\USERS\RYO\DESKTOP\EVOCREATURE - コピー\EVOCREATURE\SENSOR.CPP
^C:\USERS\RYO\DESKTOP\EVOCREATURE - コピー\EVOCREATURE\SENSORNEURON.CPP
/c /IC:\USERS\RYO\DOCUMENTS\INCLUDE2 /IC:\USERS\RYO\DOCUMENTS\INCLUDE\FREEGLUT\INCLUDE /IC:\USERS\RYO\DOCUMENTS\INCLUDE\GLFW\INCLUDE /I"C:\USERS\RYO\DOCUMENTS\INCLUDE\ODE-0.13\INCLUDE" /IC:\USERS\RYO\DOCUMENTS\INCLUDE\EIGEN /I"C:\USERS\RYO\DOCUMENTS\INCLUDE\CEREAL-MASTER\INCLUDE" /ZI /nologo /W3 /WX- /diagnostics:classic /sdl /Od /Oy- /D WIN32 /D _DEBUG /D _CONSOLE /D _UNICODE /D UNICODE /Gm- /EHsc /RTC1 /MDd /GS /fp:precise /Zc:wchar_t /Zc:forScope /Zc:inline /Fo"DEBUG\\" /Fd"DEBUG\VC141.PDB" /Gd /TP /analyze- /FC C:\USERS\RYO\DESKTOP\EVOCREATURE - コピー\EVOCREATURE\SENSORNEURON.CPP
^C:\USERS\RYO\DESKTOP\EVOCREATURE - コピー\EVOCREATURE\FUNCTION.CPP
/c /IC:\USERS\RYO\DOCUMENTS\INCLUDE2 /IC:\USERS\RYO\DOCUMENTS\INCLUDE\FREEGLUT\INCLUDE /IC:\USERS\RYO\DOCUMENTS\INCLUDE\GLFW\INCLUDE /I"C:\USERS\RYO\DOCUMENTS\INCLUDE\ODE-0.13\INCLUDE" /IC:\USERS\RYO\DOCUMENTS\INCLUDE\EIGEN /I"C:\USERS\RYO\DOCUMENTS\INCLUDE\CEREAL-MASTER\INCLUDE" /ZI /nologo /W3 /WX- /diagnostics:classic /sdl /Od /Oy- /D WIN32 /D _DEBUG /D _CONSOLE /D _UNICODE /D UNICODE /Gm- /EHsc /RTC1 /MDd /GS /fp:precise /Zc:wchar_t /Zc:forScope /Zc:inline /Fo"DEBUG\\" /Fd"DEBUG\VC141.PDB" /Gd /TP /analyze- /FC C:\USERS\RYO\DESKTOP\EVOCREATURE - コピー\EVOCREATURE\FUNCTION.CPP
^C:\USERS\RYO\DESKTOP\EVOCREATURE - コピー\EVOCREATURE\PARAMETER.CPP
/c /IC:\USERS\RYO\DOCUMENTS\INCLUDE2 /IC:\USERS\RYO\DOCUMENTS\INCLUDE\FREEGLUT\INCLUDE /IC:\USERS\RYO\DOCUMENTS\INCLUDE\GLFW\INCLUDE /I"C:\USERS\RYO\DOCUMENTS\INCLUDE\ODE-0.13\INCLUDE" /IC:\USERS\RYO\DOCUMENTS\INCLUDE\EIGEN /I"C:\USERS\RYO\DOCUMENTS\INCLUDE\CEREAL-MASTER\INCLUDE" /ZI /nologo /W3 /WX- /diagnostics:classic /sdl /Od /Oy- /D WIN32 /D _DEBUG /D _CONSOLE /D _UNICODE /D UNICODE /Gm- /EHsc /RTC1 /MDd /GS /fp:precise /Zc:wchar_t /Zc:forScope /Zc:inline /Fo"DEBUG\\" /Fd"DEBUG\VC141.PDB" /Gd /TP /analyze- /FC C:\USERS\RYO\DESKTOP\EVOCREATURE - コピー\EVOCREATURE\PARAMETER.CPP
^C:\USERS\RYO\DESKTOP\EVOCREATURE - コピー\EVOCREATURE\SINGLETON.CPP
/c /IC:\USERS\RYO\DOCUMENTS\INCLUDE2 /IC:\USERS\RYO\DOCUMENTS\INCLUDE\FREEGLUT\INCLUDE /IC:\USERS\RYO\DOCUMENTS\INCLUDE\GLFW\INCLUDE /I"C:\USERS\RYO\DOCUMENTS\INCLUDE\ODE-0.13\INCLUDE" /IC:\USERS\RYO\DOCUMENTS\INCLUDE\EIGEN /I"C:\USERS\RYO\DOCUMENTS\INCLUDE\CEREAL-MASTER\INCLUDE" /ZI /nologo /W3 /WX- /diagnostics:classic /sdl /Od /Oy- /D WIN32 /D _DEBUG /D _CONSOLE /D _UNICODE /D UNICODE /Gm- /EHsc /RTC1 /MDd /GS /fp:precise /Zc:wchar_t /Zc:forScope /Zc:inline /Fo"DEBUG\\" /Fd"DEBUG\VC141.PDB" /Gd /TP /analyze- /FC C:\USERS\RYO\DESKTOP\EVOCREATURE - コピー\EVOCREATURE\SINGLETON.CPP
^C:\USERS\RYO\DESKTOP\EVOCREATURE - コピー\EVOCREATURE\MAIN.CPP
/c /IC:\USERS\RYO\DOCUMENTS\INCLUDE2 /IC:\USERS\RYO\DOCUMENTS\INCLUDE\FREEGLUT\INCLUDE /IC:\USERS\RYO\DOCUMENTS\INCLUDE\GLFW\INCLUDE /I"C:\USERS\RYO\DOCUMENTS\INCLUDE\ODE-0.13\INCLUDE" /IC:\USERS\RYO\DOCUMENTS\INCLUDE\EIGEN /I"C:\USERS\RYO\DOCUMENTS\INCLUDE\CEREAL-MASTER\INCLUDE" /ZI /nologo /W3 /WX- /diagnostics:classic /sdl /Od /Oy- /D WIN32 /D _DEBUG /D _CONSOLE /D _UNICODE /D UNICODE /Gm- /EHsc /RTC1 /MDd /GS /fp:precise /Zc:wchar_t /Zc:forScope /Zc:inline /Fo"DEBUG\\" /Fd"DEBUG\VC141.PDB" /Gd /TP /analyze- /FC C:\USERS\RYO\DESKTOP\EVOCREATURE - コピー\EVOCREATURE\MAIN.CPP
