^C:\USERS\RYO\DESKTOP\EVOCREATURE - コピー\EVOCREATURE\BASENEURON.CPP|C:\USERS\RYO\DESKTOP\EVOCREATURE - コピー\EVOCREATURE\BASENODE.CPP|C:\USERS\RYO\DESKTOP\EVOCREATURE - コピー\EVOCREATURE\BOX.CPP|C:\USERS\RYO\DESKTOP\EVOCREATURE - コピー\EVOCREATURE\CAMERA.CPP|C:\USERS\RYO\DESKTOP\EVOCREATURE - コピー\EVOCREATURE\COMPONENT.CPP|C:\USERS\RYO\DESKTOP\EVOCREATURE - コピー\EVOCREATURE\CONNECTION.CPP|C:\USERS\RYO\DESKTOP\EVOCREATURE - コピー\EVOCREATURE\DRAWINGWINDOW.CPP|C:\USERS\RYO\DESKTOP\EVOCREATURE - コピー\EVOCREATURE\DYNAMICSWORLD.CPP|C:\USERS\RYO\DESKTOP\EVOCREATURE - コピー\EVOCREATURE\EFFECTORNEURON.CPP|C:\USERS\RYO\DESKTOP\EVOCREATURE - コピー\EVOCREATURE\FUNCTION.CPP|C:\USERS\RYO\DESKTOP\EVOCREATURE - コピー\EVOCREATURE\GENEPOOL.CPP|C:\USERS\RYO\DESKTOP\EVOCREATURE - コピー\EVOCREATURE\GENOTYPE.CPP|C:\USERS\RYO\DESKTOP\EVOCREATURE - コピー\EVOCREATURE\GENOTYPEARRAY.CPP|C:\USERS\RYO\DESKTOP\EVOCREATURE - コピー\EVOCREATURE\HEADNODE.CPP|C:\USERS\RYO\DESKTOP\EVOCREATURE - コピー\EVOCREATURE\HINGEJOINT.CPP|C:\USERS\RYO\DESKTOP\EVOCREATURE - コピー\EVOCREATURE\MAIN.CPP|C:\USERS\RYO\DESKTOP\EVOCREATURE - コピー\EVOCREATURE\NEURALNETWORK.CPP|C:\USERS\RYO\DESKTOP\EVOCREATURE - コピー\EVOCREATURE\NEUROCONNECTION.CPP|C:\USERS\RYO\DESKTOP\EVOCREATURE - コピー\EVOCREATURE\NORMALNEURON.CPP|C:\USERS\RYO\DESKTOP\EVOCREATURE - コピー\EVOCREATURE\NORMALNODE.CPP|C:\USERS\RYO\DESKTOP\EVOCREATURE - コピー\EVOCREATURE\PARAMETER.CPP|C:\USERS\RYO\DESKTOP\EVOCREATURE - コピー\EVOCREATURE\PHENOTYPE.CPP|C:\USERS\RYO\DESKTOP\EVOCREATURE - コピー\EVOCREATURE\PHYSICALPART.CPP|C:\USERS\RYO\DESKTOP\EVOCREATURE - コピー\EVOCREATURE\RANDOMOPERATION.CPP|C:\USERS\RYO\DESKTOP\EVOCREATURE - コピー\EVOCREATURE\RAY.CPP|C:\USERS\RYO\DESKTOP\EVOCREATURE - コピー\EVOCREATURE\SENSOR.CPP|C:\USERS\RYO\DESKTOP\EVOCREATURE - コピー\EVOCREATURE\SENSORNEURON.CPP|C:\USERS\RYO\DESKTOP\EVOCREATURE - コピー\EVOCREATURE\SINGLETON.CPP
C:\USERS\RYO\DESKTOP\EVOCREATURE - コピー\EVOCREATURE\DEBUG\VC141.PDB
C:\USERS\RYO\DESKTOP\EVOCREATURE - コピー\EVOCREATURE\DEBUG\VC141.IDB
C:\USERS\RYO\DESKTOP\EVOCREATURE - コピー\EVOCREATURE\DEBUG\PHENOTYPE.OBJ
C:\USERS\RYO\DESKTOP\EVOCREATURE - コピー\EVOCREATURE\DEBUG\NORMALNODE.OBJ
C:\USERS\RYO\DESKTOP\EVOCREATURE - コピー\EVOCREATURE\DEBUG\NORMALNEURON.OBJ
C:\USERS\RYO\DESKTOP\EVOCREATURE - コピー\EVOCREATURE\DEBUG\NEUROCONNECTION.OBJ
C:\USERS\RYO\DESKTOP\EVOCREATURE - コピー\EVOCREATURE\DEBUG\NEURALNETWORK.OBJ
C:\USERS\RYO\DESKTOP\EVOCREATURE - コピー\EVOCREATURE\DEBUG\HINGEJOINT.OBJ
C:\USERS\RYO\DESKTOP\EVOCREATURE - コピー\EVOCREATURE\DEBUG\HEADNODE.OBJ
C:\USERS\RYO\DESKTOP\EVOCREATURE - コピー\EVOCREATURE\DEBUG\GENOTYPEARRAY.OBJ
C:\USERS\RYO\DESKTOP\EVOCREATURE - コピー\EVOCREATURE\DEBUG\GENOTYPE.OBJ
C:\USERS\RYO\DESKTOP\EVOCREATURE - コピー\EVOCREATURE\DEBUG\GENEPOOL.OBJ
C:\USERS\RYO\DESKTOP\EVOCREATURE - コピー\EVOCREATURE\DEBUG\DYNAMICSWORLD.OBJ
C:\USERS\RYO\DESKTOP\EVOCREATURE - コピー\EVOCREATURE\DEBUG\EFFECTORNEURON.OBJ
C:\USERS\RYO\DESKTOP\EVOCREATURE - コピー\EVOCREATURE\DEBUG\CONNECTION.OBJ
C:\USERS\RYO\DESKTOP\EVOCREATURE - コピー\EVOCREATURE\DEBUG\COMPONENT.OBJ
C:\USERS\RYO\DESKTOP\EVOCREATURE - コピー\EVOCREATURE\DEBUG\CAMERA.OBJ
C:\USERS\RYO\DESKTOP\EVOCREATURE - コピー\EVOCREATURE\DEBUG\BOX.OBJ
C:\USERS\RYO\DESKTOP\EVOCREATURE - コピー\EVOCREATURE\DEBUG\BASENODE.OBJ
C:\USERS\RYO\DESKTOP\EVOCREATURE - コピー\EVOCREATURE\DEBUG\BASENEURON.OBJ
C:\USERS\RYO\DESKTOP\EVOCREATURE - コピー\EVOCREATURE\DEBUG\SINGLETON.OBJ
C:\USERS\RYO\DESKTOP\EVOCREATURE - コピー\EVOCREATURE\DEBUG\PARAMETER.OBJ
C:\USERS\RYO\DESKTOP\EVOCREATURE - コピー\EVOCREATURE\DEBUG\FUNCTION.OBJ
C:\USERS\RYO\DESKTOP\EVOCREATURE - コピー\EVOCREATURE\DEBUG\SENSORNEURON.OBJ
C:\USERS\RYO\DESKTOP\EVOCREATURE - コピー\EVOCREATURE\DEBUG\SENSOR.OBJ
C:\USERS\RYO\DESKTOP\EVOCREATURE - コピー\EVOCREATURE\DEBUG\RAY.OBJ
C:\USERS\RYO\DESKTOP\EVOCREATURE - コピー\EVOCREATURE\DEBUG\RANDOMOPERATION.OBJ
C:\USERS\RYO\DESKTOP\EVOCREATURE - コピー\EVOCREATURE\DEBUG\PHYSICALPART.OBJ
^C:\USERS\RYO\DESKTOP\EVOCREATURE - コピー\EVOCREATURE\BASENEURON.CPP|C:\USERS\RYO\DESKTOP\EVOCREATURE - コピー\EVOCREATURE\DYNAMICSWORLD.CPP|C:\USERS\RYO\DESKTOP\EVOCREATURE - コピー\EVOCREATURE\MAIN.CPP|C:\USERS\RYO\DESKTOP\EVOCREATURE - コピー\EVOCREATURE\NEURALNETWORK.CPP
C:\USERS\RYO\DESKTOP\EVOCREATURE - コピー\EVOCREATURE\DEBUG\VC141.PDB
C:\USERS\RYO\DESKTOP\EVOCREATURE - コピー\EVOCREATURE\DEBUG\VC141.IDB
C:\USERS\RYO\DESKTOP\EVOCREATURE - コピー\EVOCREATURE\DEBUG\NEURALNETWORK.OBJ
C:\USERS\RYO\DESKTOP\EVOCREATURE - コピー\EVOCREATURE\DEBUG\DYNAMICSWORLD.OBJ
C:\USERS\RYO\DESKTOP\EVOCREATURE - コピー\EVOCREATURE\DEBUG\BASENEURON.OBJ
^C:\USERS\RYO\DESKTOP\EVOCREATURE - コピー\EVOCREATURE\AGENT.CPP|C:\USERS\RYO\DESKTOP\EVOCREATURE - コピー\EVOCREATURE\BASENODE.CPP|C:\USERS\RYO\DESKTOP\EVOCREATURE - コピー\EVOCREATURE\COMPONENT.CPP|C:\USERS\RYO\DESKTOP\EVOCREATURE - コピー\EVOCREATURE\DYNAMICSWORLD.CPP|C:\USERS\RYO\DESKTOP\EVOCREATURE - コピー\EVOCREATURE\GENEPOOL.CPP|C:\USERS\RYO\DESKTOP\EVOCREATURE - コピー\EVOCREATURE\GENOTYPE.CPP|C:\USERS\RYO\DESKTOP\EVOCREATURE - コピー\EVOCREATURE\GENOTYPEARRAY.CPP|C:\USERS\RYO\DESKTOP\EVOCREATURE - コピー\EVOCREATURE\HEADNODE.CPP|C:\USERS\RYO\DESKTOP\EVOCREATURE - コピー\EVOCREATURE\MAIN.CPP|C:\USERS\RYO\DESKTOP\EVOCREATURE - コピー\EVOCREATURE\NEURALNETWORK.CPP|C:\USERS\RYO\DESKTOP\EVOCREATURE - コピー\EVOCREATURE\NORMALNODE.CPP|C:\USERS\RYO\DESKTOP\EVOCREATURE - コピー\EVOCREATURE\PHENOTYPE.CPP|C:\USERS\RYO\DESKTOP\EVOCREATURE - コピー\EVOCREATURE\SENSORNEURON.CPP
C:\USERS\RYO\DESKTOP\EVOCREATURE - コピー\EVOCREATURE\DEBUG\VC141.PDB
C:\USERS\RYO\DESKTOP\EVOCREATURE - コピー\EVOCREATURE\DEBUG\VC141.IDB
C:\USERS\RYO\DESKTOP\EVOCREATURE - コピー\EVOCREATURE\DEBUG\SENSORNEURON.OBJ
C:\USERS\RYO\DESKTOP\EVOCREATURE - コピー\EVOCREATURE\DEBUG\PHENOTYPE.OBJ
C:\USERS\RYO\DESKTOP\EVOCREATURE - コピー\EVOCREATURE\DEBUG\NORMALNODE.OBJ
C:\USERS\RYO\DESKTOP\EVOCREATURE - コピー\EVOCREATURE\DEBUG\NEURALNETWORK.OBJ
C:\USERS\RYO\DESKTOP\EVOCREATURE - コピー\EVOCREATURE\DEBUG\HEADNODE.OBJ
C:\USERS\RYO\DESKTOP\EVOCREATURE - コピー\EVOCREATURE\DEBUG\GENOTYPEARRAY.OBJ
C:\USERS\RYO\DESKTOP\EVOCREATURE - コピー\EVOCREATURE\DEBUG\GENOTYPE.OBJ
C:\USERS\RYO\DESKTOP\EVOCREATURE - コピー\EVOCREATURE\DEBUG\GENEPOOL.OBJ
C:\USERS\RYO\DESKTOP\EVOCREATURE - コピー\EVOCREATURE\DEBUG\DYNAMICSWORLD.OBJ
C:\USERS\RYO\DESKTOP\EVOCREATURE - コピー\EVOCREATURE\DEBUG\COMPONENT.OBJ
C:\USERS\RYO\DESKTOP\EVOCREATURE - コピー\EVOCREATURE\DEBUG\BASENODE.OBJ
C:\USERS\RYO\DESKTOP\EVOCREATURE - コピー\EVOCREATURE\DEBUG\AGENT.OBJ
^C:\USERS\RYO\DESKTOP\EVOCREATURE - コピー\EVOCREATURE\AGENT.CPP|C:\USERS\RYO\DESKTOP\EVOCREATURE - コピー\EVOCREATURE\BASENODE.CPP|C:\USERS\RYO\DESKTOP\EVOCREATURE - コピー\EVOCREATURE\COMPONENT.CPP|C:\USERS\RYO\DESKTOP\EVOCREATURE - コピー\EVOCREATURE\DYNAMICSWORLD.CPP|C:\USERS\RYO\DESKTOP\EVOCREATURE - コピー\EVOCREATURE\GENEPOOL.CPP|C:\USERS\RYO\DESKTOP\EVOCREATURE - コピー\EVOCREATURE\GENOTYPE.CPP|C:\USERS\RYO\DESKTOP\EVOCREATURE - コピー\EVOCREATURE\GENOTYPEARRAY.CPP|C:\USERS\RYO\DESKTOP\EVOCREATURE - コピー\EVOCREATURE\HEADNODE.CPP|C:\USERS\RYO\DESKTOP\EVOCREATURE - コピー\EVOCREATURE\NEURALNETWORK.CPP|C:\USERS\RYO\DESKTOP\EVOCREATURE - コピー\EVOCREATURE\NORMALNODE.CPP|C:\USERS\RYO\DESKTOP\EVOCREATURE - コピー\EVOCREATURE\PHENOTYPE.CPP|C:\USERS\RYO\DESKTOP\EVOCREATURE - コピー\EVOCREATURE\SENSORNEURON.CPP
C:\USERS\RYO\DESKTOP\EVOCREATURE - コピー\EVOCREATURE\DEBUG\VC141.PDB
C:\USERS\RYO\DESKTOP\EVOCREATURE - コピー\EVOCREATURE\DEBUG\VC141.IDB
C:\USERS\RYO\DESKTOP\EVOCREATURE - コピー\EVOCREATURE\DEBUG\SENSORNEURON.OBJ
C:\USERS\RYO\DESKTOP\EVOCREATURE - コピー\EVOCREATURE\DEBUG\PHENOTYPE.OBJ
C:\USERS\RYO\DESKTOP\EVOCREATURE - コピー\EVOCREATURE\DEBUG\NORMALNODE.OBJ
C:\USERS\RYO\DESKTOP\EVOCREATURE - コピー\EVOCREATURE\DEBUG\NEURALNETWORK.OBJ
C:\USERS\RYO\DESKTOP\EVOCREATURE - コピー\EVOCREATURE\DEBUG\HEADNODE.OBJ
C:\USERS\RYO\DESKTOP\EVOCREATURE - コピー\EVOCREATURE\DEBUG\GENOTYPEARRAY.OBJ
C:\USERS\RYO\DESKTOP\EVOCREATURE - コピー\EVOCREATURE\DEBUG\GENOTYPE.OBJ
C:\USERS\RYO\DESKTOP\EVOCREATURE - コピー\EVOCREATURE\DEBUG\GENEPOOL.OBJ
C:\USERS\RYO\DESKTOP\EVOCREATURE - コピー\EVOCREATURE\DEBUG\DYNAMICSWORLD.OBJ
C:\USERS\RYO\DESKTOP\EVOCREATURE - コピー\EVOCREATURE\DEBUG\COMPONENT.OBJ
C:\USERS\RYO\DESKTOP\EVOCREATURE - コピー\EVOCREATURE\DEBUG\BASENODE.OBJ
C:\USERS\RYO\DESKTOP\EVOCREATURE - コピー\EVOCREATURE\DEBUG\AGENT.OBJ
^C:\USERS\RYO\DESKTOP\EVOCREATURE - コピー\EVOCREATURE\DRAWINGWINDOW.CPP|C:\USERS\RYO\DESKTOP\EVOCREATURE - コピー\EVOCREATURE\MAIN.CPP
C:\USERS\RYO\DESKTOP\EVOCREATURE - コピー\EVOCREATURE\DEBUG\VC141.PDB
C:\USERS\RYO\DESKTOP\EVOCREATURE - コピー\EVOCREATURE\DEBUG\VC141.IDB
C:\USERS\RYO\DESKTOP\EVOCREATURE - コピー\EVOCREATURE\DEBUG\MAIN.OBJ
^C:\USERS\RYO\DESKTOP\EVOCREATURE - コピー\EVOCREATURE\AGENT.CPP|C:\USERS\RYO\DESKTOP\EVOCREATURE - コピー\EVOCREATURE\BASENEURON.CPP|C:\USERS\RYO\DESKTOP\EVOCREATURE - コピー\EVOCREATURE\BASENODE.CPP|C:\USERS\RYO\DESKTOP\EVOCREATURE - コピー\EVOCREATURE\BOX.CPP|C:\USERS\RYO\DESKTOP\EVOCREATURE - コピー\EVOCREATURE\CAMERA.CPP|C:\USERS\RYO\DESKTOP\EVOCREATURE - コピー\EVOCREATURE\COMPONENT.CPP|C:\USERS\RYO\DESKTOP\EVOCREATURE - コピー\EVOCREATURE\CONNECTION.CPP|C:\USERS\RYO\DESKTOP\EVOCREATURE - コピー\EVOCREATURE\DRAWINGWINDOW.CPP|C:\USERS\RYO\DESKTOP\EVOCREATURE - コピー\EVOCREATURE\DYNAMICSWORLD.CPP|C:\USERS\RYO\DESKTOP\EVOCREATURE - コピー\EVOCREATURE\EFFECTORNEURON.CPP|C:\USERS\RYO\DESKTOP\EVOCREATURE - コピー\EVOCREATURE\FUNCTION.CPP|C:\USERS\RYO\DESKTOP\EVOCREATURE - コピー\EVOCREATURE\GENEPOOL.CPP|C:\USERS\RYO\DESKTOP\EVOCREATURE - コピー\EVOCREATURE\GENOTYPE.CPP|C:\USERS\RYO\DESKTOP\EVOCREATURE - コピー\EVOCREATURE\GENOTYPEARRAY.CPP|C:\USERS\RYO\DESKTOP\EVOCREATURE - コピー\EVOCREATURE\HEADNODE.CPP|C:\USERS\RYO\DESKTOP\EVOCREATURE - コピー\EVOCREATURE\HINGEJOINT.CPP|C:\USERS\RYO\DESKTOP\EVOCREATURE - コピー\EVOCREATURE\MAIN.CPP|C:\USERS\RYO\DESKTOP\EVOCREATURE - コピー\EVOCREATURE\NEURALNETWORK.CPP|C:\USERS\RYO\DESKTOP\EVOCREATURE - コピー\EVOCREATURE\NEUROCONNECTION.CPP|C:\USERS\RYO\DESKTOP\EVOCREATURE - コピー\EVOCREATURE\NORMALNEURON.CPP|C:\USERS\RYO\DESKTOP\EVOCREATURE - コピー\EVOCREATURE\NORMALNODE.CPP|C:\USERS\RYO\DESKTOP\EVOCREATURE - コピー\EVOCREATURE\PARAMETER.CPP|C:\USERS\RYO\DESKTOP\EVOCREATURE - コピー\EVOCREATURE\PHENOTYPE.CPP|C:\USERS\RYO\DESKTOP\EVOCREATURE - コピー\EVOCREATURE\PHYSICALPART.CPP|C:\USERS\RYO\DESKTOP\EVOCREATURE - コピー\EVOCREATURE\RANDOMOPERATION.CPP|C:\USERS\RYO\DESKTOP\EVOCREATURE - コピー\EVOCREATURE\RAY.CPP|C:\USERS\RYO\DESKTOP\EVOCREATURE - コピー\EVOCREATURE\SENSOR.CPP|C:\USERS\RYO\DESKTOP\EVOCREATURE - コピー\EVOCREATURE\SENSORNEURON.CPP|C:\USERS\RYO\DESKTOP\EVOCREATURE - コピー\EVOCREATURE\SINGLETON.CPP
C:\USERS\RYO\DESKTOP\EVOCREATURE - コピー\EVOCREATURE\DEBUG\VC141.PDB
C:\USERS\RYO\DESKTOP\EVOCREATURE - コピー\EVOCREATURE\DEBUG\VC141.IDB
C:\USERS\RYO\DESKTOP\EVOCREATURE - コピー\EVOCREATURE\DEBUG\NORMALNODE.OBJ
C:\USERS\RYO\DESKTOP\EVOCREATURE - コピー\EVOCREATURE\DEBUG\NORMALNEURON.OBJ
C:\USERS\RYO\DESKTOP\EVOCREATURE - コピー\EVOCREATURE\DEBUG\NEUROCONNECTION.OBJ
C:\USERS\RYO\DESKTOP\EVOCREATURE - コピー\EVOCREATURE\DEBUG\NEURALNETWORK.OBJ
C:\USERS\RYO\DESKTOP\EVOCREATURE - コピー\EVOCREATURE\DEBUG\MAIN.OBJ
C:\USERS\RYO\DESKTOP\EVOCREATURE - コピー\EVOCREATURE\DEBUG\HINGEJOINT.OBJ
C:\USERS\RYO\DESKTOP\EVOCREATURE - コピー\EVOCREATURE\DEBUG\HEADNODE.OBJ
C:\USERS\RYO\DESKTOP\EVOCREATURE - コピー\EVOCREATURE\DEBUG\GENOTYPEARRAY.OBJ
C:\USERS\RYO\DESKTOP\EVOCREATURE - コピー\EVOCREATURE\DEBUG\GENOTYPE.OBJ
C:\USERS\RYO\DESKTOP\EVOCREATURE - コピー\EVOCREATURE\DEBUG\GENEPOOL.OBJ
C:\USERS\RYO\DESKTOP\EVOCREATURE - コピー\EVOCREATURE\DEBUG\DYNAMICSWORLD.OBJ
C:\USERS\RYO\DESKTOP\EVOCREATURE - コピー\EVOCREATURE\DEBUG\DRAWINGWINDOW.OBJ
C:\USERS\RYO\DESKTOP\EVOCREATURE - コピー\EVOCREATURE\DEBUG\EFFECTORNEURON.OBJ
C:\USERS\RYO\DESKTOP\EVOCREATURE - コピー\EVOCREATURE\DEBUG\CONNECTION.OBJ
C:\USERS\RYO\DESKTOP\EVOCREATURE - コピー\EVOCREATURE\DEBUG\COMPONENT.OBJ
C:\USERS\RYO\DESKTOP\EVOCREATURE - コピー\EVOCREATURE\DEBUG\CAMERA.OBJ
C:\USERS\RYO\DESKTOP\EVOCREATURE - コピー\EVOCREATURE\DEBUG\BOX.OBJ
C:\USERS\RYO\DESKTOP\EVOCREATURE - コピー\EVOCREATURE\DEBUG\BASENODE.OBJ
C:\USERS\RYO\DESKTOP\EVOCREATURE - コピー\EVOCREATURE\DEBUG\BASENEURON.OBJ
C:\USERS\RYO\DESKTOP\EVOCREATURE - コピー\EVOCREATURE\DEBUG\AGENT.OBJ
C:\USERS\RYO\DESKTOP\EVOCREATURE - コピー\EVOCREATURE\DEBUG\SINGLETON.OBJ
C:\USERS\RYO\DESKTOP\EVOCREATURE - コピー\EVOCREATURE\DEBUG\PARAMETER.OBJ
C:\USERS\RYO\DESKTOP\EVOCREATURE - コピー\EVOCREATURE\DEBUG\FUNCTION.OBJ
C:\USERS\RYO\DESKTOP\EVOCREATURE - コピー\EVOCREATURE\DEBUG\SENSORNEURON.OBJ
C:\USERS\RYO\DESKTOP\EVOCREATURE - コピー\EVOCREATURE\DEBUG\SENSOR.OBJ
C:\USERS\RYO\DESKTOP\EVOCREATURE - コピー\EVOCREATURE\DEBUG\RAY.OBJ
C:\USERS\RYO\DESKTOP\EVOCREATURE - コピー\EVOCREATURE\DEBUG\RANDOMOPERATION.OBJ
C:\USERS\RYO\DESKTOP\EVOCREATURE - コピー\EVOCREATURE\DEBUG\PHYSICALPART.OBJ
C:\USERS\RYO\DESKTOP\EVOCREATURE - コピー\EVOCREATURE\DEBUG\PHENOTYPE.OBJ
^C:\USERS\RYO\DESKTOP\EVOCREATURE - コピー\EVOCREATURE\AGENT.CPP
C:\USERS\RYO\DESKTOP\EVOCREATURE - コピー\EVOCREATURE\DEBUG\VC141.PDB
^C:\USERS\RYO\DESKTOP\EVOCREATURE - コピー\EVOCREATURE\BASENEURON.CPP
C:\USERS\RYO\DESKTOP\EVOCREATURE - コピー\EVOCREATURE\DEBUG\VC141.PDB
^C:\USERS\RYO\DESKTOP\EVOCREATURE - コピー\EVOCREATURE\BASENODE.CPP
C:\USERS\RYO\DESKTOP\EVOCREATURE - コピー\EVOCREATURE\DEBUG\VC141.PDB
^C:\USERS\RYO\DESKTOP\EVOCREATURE - コピー\EVOCREATURE\BOX.CPP
C:\USERS\RYO\DESKTOP\EVOCREATURE - コピー\EVOCREATURE\DEBUG\VC141.PDB
^C:\USERS\RYO\DESKTOP\EVOCREATURE - コピー\EVOCREATURE\CAMERA.CPP
C:\USERS\RYO\DESKTOP\EVOCREATURE - コピー\EVOCREATURE\DEBUG\VC141.PDB
^C:\USERS\RYO\DESKTOP\EVOCREATURE - コピー\EVOCREATURE\COMPONENT.CPP
C:\USERS\RYO\DESKTOP\EVOCREATURE - コピー\EVOCREATURE\DEBUG\VC141.PDB
^C:\USERS\RYO\DESKTOP\EVOCREATURE - コピー\EVOCREATURE\CONNECTION.CPP
C:\USERS\RYO\DESKTOP\EVOCREATURE - コピー\EVOCREATURE\DEBUG\VC141.PDB
^C:\USERS\RYO\DESKTOP\EVOCREATURE - コピー\EVOCREATURE\EFFECTORNEURON.CPP
C:\USERS\RYO\DESKTOP\EVOCREATURE - コピー\EVOCREATURE\DEBUG\VC141.PDB
^C:\USERS\RYO\DESKTOP\EVOCREATURE - コピー\EVOCREATURE\DRAWINGWINDOW.CPP
C:\USERS\RYO\DESKTOP\EVOCREATURE - コピー\EVOCREATURE\DEBUG\VC141.PDB
^C:\USERS\RYO\DESKTOP\EVOCREATURE - コピー\EVOCREATURE\DYNAMICSWORLD.CPP
C:\USERS\RYO\DESKTOP\EVOCREATURE - コピー\EVOCREATURE\DEBUG\VC141.PDB
^C:\USERS\RYO\DESKTOP\EVOCREATURE - コピー\EVOCREATURE\GENEPOOL.CPP
C:\USERS\RYO\DESKTOP\EVOCREATURE - コピー\EVOCREATURE\DEBUG\VC141.PDB
^C:\USERS\RYO\DESKTOP\EVOCREATURE - コピー\EVOCREATURE\GENOTYPE.CPP
C:\USERS\RYO\DESKTOP\EVOCREATURE - コピー\EVOCREATURE\DEBUG\VC141.PDB
^C:\USERS\RYO\DESKTOP\EVOCREATURE - コピー\EVOCREATURE\GENOTYPEARRAY.CPP
C:\USERS\RYO\DESKTOP\EVOCREATURE - コピー\EVOCREATURE\DEBUG\VC141.PDB
^C:\USERS\RYO\DESKTOP\EVOCREATURE - コピー\EVOCREATURE\HEADNODE.CPP
C:\USERS\RYO\DESKTOP\EVOCREATURE - コピー\EVOCREATURE\DEBUG\VC141.PDB
^C:\USERS\RYO\DESKTOP\EVOCREATURE - コピー\EVOCREATURE\HINGEJOINT.CPP
C:\USERS\RYO\DESKTOP\EVOCREATURE - コピー\EVOCREATURE\DEBUG\VC141.PDB
^C:\USERS\RYO\DESKTOP\EVOCREATURE - コピー\EVOCREATURE\NEURALNETWORK.CPP
C:\USERS\RYO\DESKTOP\EVOCREATURE - コピー\EVOCREATURE\DEBUG\VC141.PDB
^C:\USERS\RYO\DESKTOP\EVOCREATURE - コピー\EVOCREATURE\NEUROCONNECTION.CPP
C:\USERS\RYO\DESKTOP\EVOCREATURE - コピー\EVOCREATURE\DEBUG\VC141.PDB
^C:\USERS\RYO\DESKTOP\EVOCREATURE - コピー\EVOCREATURE\NORMALNEURON.CPP
C:\USERS\RYO\DESKTOP\EVOCREATURE - コピー\EVOCREATURE\DEBUG\VC141.PDB
^C:\USERS\RYO\DESKTOP\EVOCREATURE - コピー\EVOCREATURE\NORMALNODE.CPP
C:\USERS\RYO\DESKTOP\EVOCREATURE - コピー\EVOCREATURE\DEBUG\VC141.PDB
^C:\USERS\RYO\DESKTOP\EVOCREATURE - コピー\EVOCREATURE\PHENOTYPE.CPP
C:\USERS\RYO\DESKTOP\EVOCREATURE - コピー\EVOCREATURE\DEBUG\VC141.PDB
^C:\USERS\RYO\DESKTOP\EVOCREATURE - コピー\EVOCREATURE\PHYSICALPART.CPP
C:\USERS\RYO\DESKTOP\EVOCREATURE - コピー\EVOCREATURE\DEBUG\VC141.PDB
^C:\USERS\RYO\DESKTOP\EVOCREATURE - コピー\EVOCREATURE\RANDOMOPERATION.CPP
C:\USERS\RYO\DESKTOP\EVOCREATURE - コピー\EVOCREATURE\DEBUG\VC141.PDB
^C:\USERS\RYO\DESKTOP\EVOCREATURE - コピー\EVOCREATURE\RAY.CPP
C:\USERS\RYO\DESKTOP\EVOCREATURE - コピー\EVOCREATURE\DEBUG\VC141.PDB
^C:\USERS\RYO\DESKTOP\EVOCREATURE - コピー\EVOCREATURE\SENSOR.CPP
C:\USERS\RYO\DESKTOP\EVOCREATURE - コピー\EVOCREATURE\DEBUG\VC141.PDB
^C:\USERS\RYO\DESKTOP\EVOCREATURE - コピー\EVOCREATURE\SENSORNEURON.CPP
C:\USERS\RYO\DESKTOP\EVOCREATURE - コピー\EVOCREATURE\DEBUG\VC141.PDB
^C:\USERS\RYO\DESKTOP\EVOCREATURE - コピー\EVOCREATURE\FUNCTION.CPP
C:\USERS\RYO\DESKTOP\EVOCREATURE - コピー\EVOCREATURE\DEBUG\VC141.PDB
^C:\USERS\RYO\DESKTOP\EVOCREATURE - コピー\EVOCREATURE\PARAMETER.CPP
C:\USERS\RYO\DESKTOP\EVOCREATURE - コピー\EVOCREATURE\DEBUG\VC141.PDB
^C:\USERS\RYO\DESKTOP\EVOCREATURE - コピー\EVOCREATURE\SINGLETON.CPP
C:\USERS\RYO\DESKTOP\EVOCREATURE - コピー\EVOCREATURE\DEBUG\VC141.PDB
^C:\USERS\RYO\DESKTOP\EVOCREATURE - コピー\EVOCREATURE\MAIN.CPP
C:\USERS\RYO\DESKTOP\EVOCREATURE - コピー\EVOCREATURE\DEBUG\VC141.PDB
C:\USERS\RYO\DESKTOP\EVOCREATURE - コピー\EVOCREATURE\DEBUG\VC141.IDB
C:\USERS\RYO\DESKTOP\EVOCREATURE - コピー\EVOCREATURE\DEBUG\MAIN.OBJ
