#Command: "C:\Program Files (x86)\Microsoft Visual Studio\2017\Community\VC\Tools\MSVC\14.13.26128\bin\HostX86\x86\link.exe" /ERRORREPORT:PROMPT @C:\Users\ryo\AppData\Local\Temp\tmpa5bc17b7f7f542acaf4c0b60577ffd17.rsp
^C:\USERS\RYO\DESKTOP\EVOCREATURE - コピー\EVOCREATURE\DEBUG\AGENT.OBJ|C:\USERS\RYO\DESKTOP\EVOCREATURE - コピー\EVOCREATURE\DEBUG\BASENEURON.OBJ|C:\USERS\RYO\DESKTOP\EVOCREATURE - コピー\EVOCREATURE\DEBUG\BASENODE.OBJ|C:\USERS\RYO\DESKTOP\EVOCREATURE - コピー\EVOCREATURE\DEBUG\BOX.OBJ|C:\USERS\RYO\DESKTOP\EVOCREATURE - コピー\EVOCREATURE\DEBUG\CAMERA.OBJ|C:\USERS\RYO\DESKTOP\EVOCREATURE - コピー\EVOCREATURE\DEBUG\COMPONENT.OBJ|C:\USERS\RYO\DESKTOP\EVOCREATURE - コピー\EVOCREATURE\DEBUG\CONNECTION.OBJ|C:\USERS\RYO\DESKTOP\EVOCREATURE - コピー\EVOCREATURE\DEBUG\DRAWINGWINDOW.OBJ|C:\USERS\RYO\DESKTOP\EVOCREATURE - コピー\EVOCREATURE\DEBUG\DYNAMICSWORLD.OBJ|C:\USERS\RYO\DESKTOP\EVOCREATURE - コピー\EVOCREATURE\DEBUG\EFFECTORNEURON.OBJ|C:\USERS\RYO\DESKTOP\EVOCREATURE - コピー\EVOCREATURE\DEBUG\FUNCTION.OBJ|C:\USERS\RYO\DESKTOP\EVOCREATURE - コピー\EVOCREATURE\DEBUG\GENEPOOL.OBJ|C:\USERS\RYO\DESKTOP\EVOCREATURE - コピー\EVOCREATURE\DEBUG\GENOTYPE.OBJ|C:\USERS\RYO\DESKTOP\EVOCREATURE - コピー\EVOCREATURE\DEBUG\GENOTYPEARRAY.OBJ|C:\USERS\RYO\DESKTOP\EVOCREATURE - コピー\EVOCREATURE\DEBUG\HEADNODE.OBJ|C:\USERS\RYO\DESKTOP\EVOCREATURE - コピー\EVOCREATURE\DEBUG\HINGEJOINT.OBJ|C:\USERS\RYO\DESKTOP\EVOCREATURE - コピー\EVOCREATURE\DEBUG\MAIN.OBJ|C:\USERS\RYO\DESKTOP\EVOCREATURE - コピー\EVOCREATURE\DEBUG\NEURALNETWORK.OBJ|C:\USERS\RYO\DESKTOP\EVOCREATURE - コピー\EVOCREATURE\DEBUG\NEUROCONNECTION.OBJ|C:\USERS\RYO\DESKTOP\EVOCREATURE - コピー\EVOCREATURE\DEBUG\NORMALNEURON.OBJ|C:\USERS\RYO\DESKTOP\EVOCREATURE - コピー\EVOCREATURE\DEBUG\NORMALNODE.OBJ|C:\USERS\RYO\DESKTOP\EVOCREATURE - コピー\EVOCREATURE\DEBUG\PARAMETER.OBJ|C:\USERS\RYO\DESKTOP\EVOCREATURE - コピー\EVOCREATURE\DEBUG\PHENOTYPE.OBJ|C:\USERS\RYO\DESKTOP\EVOCREATURE - コピー\EVOCREATURE\DEBUG\PHYSICALPART.OBJ|C:\USERS\RYO\DESKTOP\EVOCREATURE - コピー\EVOCREATURE\DEBUG\RANDOMOPERATION.OBJ|C:\USERS\RYO\DESKTOP\EVOCREATURE - コピー\EVOCREATURE\DEBUG\RAY.OBJ|C:\USERS\RYO\DESKTOP\EVOCREATURE - コピー\EVOCREATURE\DEBUG\SENSOR.OBJ|C:\USERS\RYO\DESKTOP\EVOCREATURE - コピー\EVOCREATURE\DEBUG\SENSORNEURON.OBJ|C:\USERS\RYO\DESKTOP\EVOCREATURE - コピー\EVOCREATURE\DEBUG\SINGLETON.OBJ
C:\USERS\RYO\APPDATA\LOCAL\TEMP\LNK{443D8118-47F8-49AA-9F0A-D4CD1C6C8E7F}.TMP
